EESchema Schematic File Version 4
EELAYER 30 0
EELAYER END
$Descr A4 11693 8268
encoding utf-8
Sheet 2 3
Title "Bertold Meyer Analog Interface"
Date "2019-10-15"
Rev "0"
Comp "KOMA Elektronik"
Comment1 ""
Comment2 ""
Comment3 ""
Comment4 ""
$EndDescr
$Comp
L KomaFieldKit-PR3-rescue:C C2
U 1 1 56CCA68D
P 4025 2950
F 0 "C2" H 4075 3050 50  0000 L CNN
F 1 "100nF" H 4075 2850 50  0000 L CNN
F 2 "Capacitor_THT:C_Rect_L7.2mm_W2.5mm_P5.00mm_FKS2_FKP2_MKS2_MKP2" H 4025 2950 60  0001 C CNN
F 3 "" H 4025 2950 60  0000 C CNN
	1    4025 2950
	1    0    0    -1  
$EndComp
$Comp
L KomaFieldKit-PR3-rescue:VCC #PWR01
U 1 1 56CCA6B2
P 5425 2600
F 0 "#PWR01" H 5425 2700 30  0001 C CNN
F 1 "VCC" H 5425 2725 30  0000 C CNN
F 2 "" H 5425 2600 60  0000 C CNN
F 3 "" H 5425 2600 60  0000 C CNN
	1    5425 2600
	1    0    0    -1  
$EndComp
$Comp
L KomaFieldKit-PR3-rescue:R R1
U 1 1 56CCA6B8
P 5425 2900
F 0 "R1" V 5505 2900 50  0000 C CNN
F 1 "100k" V 5425 2900 50  0000 C CNN
F 2 "Resistor_THT:R_Axial_DIN0207_L6.3mm_D2.5mm_P10.16mm_Horizontal" H 5425 2900 60  0001 C CNN
F 3 "" H 5425 2900 60  0000 C CNN
	1    5425 2900
	1    0    0    -1  
$EndComp
$Comp
L KomaFieldKit-PR3-rescue:R R2
U 1 1 56CCA6BF
P 5425 3450
F 0 "R2" V 5505 3450 50  0000 C CNN
F 1 "100k" V 5425 3450 50  0000 C CNN
F 2 "Resistor_THT:R_Axial_DIN0207_L6.3mm_D2.5mm_P10.16mm_Horizontal" H 5425 3450 60  0001 C CNN
F 3 "" H 5425 3450 60  0000 C CNN
	1    5425 3450
	1    0    0    -1  
$EndComp
$Comp
L KomaFieldKit-PR3-rescue:C C4
U 1 1 56CCA6CD
P 7725 3050
F 0 "C4" H 7775 3150 50  0000 L CNN
F 1 "100n" H 7775 2950 50  0000 L CNN
F 2 "Capacitor_THT:C_Rect_L7.2mm_W2.5mm_P5.00mm_FKS2_FKP2_MKS2_MKP2" H 7725 3050 60  0001 C CNN
F 3 "" H 7725 3050 60  0000 C CNN
	1    7725 3050
	1    0    0    -1  
$EndComp
$Comp
L KomaFieldKit-PR3-rescue:TL072 U1
U 1 1 56CCA786
P 6575 3100
F 0 "U1" H 6525 3300 60  0000 L CNN
F 1 "TL072" H 6525 2850 60  0000 L CNN
F 2 "Package_DIP:DIP-8_W7.62mm_LongPads" H 6575 3100 60  0001 C CNN
F 3 "" H 6575 3100 60  0000 C CNN
	1    6575 3100
	1    0    0    1   
$EndComp
$Comp
L KomaFieldKit-PR3-rescue:AGND #PWR?
U 1 1 56CCA7C3
P 7425 3250
AR Path="/56CCA7C3" Ref="#PWR?"  Part="1" 
AR Path="/56CC38FC/56CCA7C3" Ref="#PWR?"  Part="1" 
AR Path="/5DAA151B/56CCA7C3" Ref="#PWR05"  Part="1" 
F 0 "#PWR05" H 7425 3250 40  0001 C CNN
F 1 "AGND" H 7425 3180 50  0000 C CNN
F 2 "" H 7425 3250 60  0000 C CNN
F 3 "" H 7425 3250 60  0000 C CNN
	1    7425 3250
	1    0    0    -1  
$EndComp
$Comp
L KomaFieldKit-PR3-rescue:VCC #PWR09
U 1 1 56D43069
P 2450 4275
F 0 "#PWR09" H 2450 4375 30  0001 C CNN
F 1 "VCC" H 2450 4375 30  0000 C CNN
F 2 "" H 2450 4275 60  0000 C CNN
F 3 "" H 2450 4275 60  0000 C CNN
	1    2450 4275
	1    0    0    -1  
$EndComp
$Comp
L KomaFieldKit-PR3-rescue:AGND #PWR?
U 1 1 56D436C3
P 2450 5275
AR Path="/56D436C3" Ref="#PWR?"  Part="1" 
AR Path="/56CC38FC/56D436C3" Ref="#PWR?"  Part="1" 
AR Path="/5DAA151B/56D436C3" Ref="#PWR010"  Part="1" 
F 0 "#PWR010" H 2450 5275 40  0001 C CNN
F 1 "AGND" H 2450 5205 50  0000 C CNN
F 2 "" H 2450 5275 60  0000 C CNN
F 3 "" H 2450 5275 60  0000 C CNN
	1    2450 5275
	1    0    0    -1  
$EndComp
$Comp
L KomaFieldKit-PR3-rescue:C C6
U 1 1 56D8319C
P 6025 3450
F 0 "C6" H 6075 3550 50  0000 L CNN
F 1 "100n" H 6075 3350 50  0000 L CNN
F 2 "Capacitor_THT:C_Rect_L7.2mm_W2.5mm_P5.00mm_FKS2_FKP2_MKS2_MKP2" H 6025 3450 60  0001 C CNN
F 3 "" H 6025 3450 60  0000 C CNN
	1    6025 3450
	1    0    0    -1  
$EndComp
$Comp
L KomaFieldKit-PR3-rescue:C C7
U 1 1 56D97771
P 2950 4775
F 0 "C7" H 3000 4875 50  0000 L CNN
F 1 "100n" H 3000 4675 50  0000 L CNN
F 2 "Capacitor_THT:C_Rect_L7.2mm_W2.5mm_P5.00mm_FKS2_FKP2_MKS2_MKP2" H 2950 4775 60  0001 C CNN
F 3 "" H 2950 4775 60  0000 C CNN
	1    2950 4775
	1    0    0    -1  
$EndComp
$Comp
L KomaFieldKit-PR3-rescue:VV #PWR02
U 1 1 56D9CCD0
P 7725 2700
F 0 "#PWR02" H 7725 2800 30  0001 C CNN
F 1 "VV" H 7725 2800 30  0000 C CNN
F 2 "" H 7725 2700 60  0000 C CNN
F 3 "" H 7725 2700 60  0000 C CNN
	1    7725 2700
	1    0    0    -1  
$EndComp
$Comp
L KomaFieldKit-PR3-rescue:CONN_1 P1
U 1 1 56F13B52
P 7775 4950
F 0 "P1" H 7725 5050 40  0000 L CNN
F 1 "Mount1" H 7775 5005 30  0000 C CNN
F 2 "otto:MountingHole_M3-3.5mm" H 7775 4950 60  0001 C CNN
F 3 "" H 7775 4950 60  0000 C CNN
	1    7775 4950
	1    0    0    -1  
$EndComp
$Comp
L KomaFieldKit-PR3-rescue:CONN_1 P2
U 1 1 56F13C58
P 7925 4950
F 0 "P2" H 7875 4850 40  0000 L CNN
F 1 "Mount2" H 7925 4900 30  0000 C CNN
F 2 "otto:MountingHole_M3-3.5mm" H 7925 4950 60  0001 C CNN
F 3 "" H 7925 4950 60  0000 C CNN
	1    7925 4950
	-1   0    0    1   
$EndComp
$Comp
L KomaFieldKit-PR3-rescue:CONN_1 P3
U 1 1 56F13D06
P 7775 5150
F 0 "P3" H 7725 5250 40  0000 L CNN
F 1 "Mount3" H 7775 5205 30  0000 C CNN
F 2 "otto:MountingHole_M3-3.5mm" H 7775 5150 60  0001 C CNN
F 3 "" H 7775 5150 60  0000 C CNN
	1    7775 5150
	1    0    0    -1  
$EndComp
$Comp
L KomaFieldKit-PR3-rescue:CONN_1 P4
U 1 1 56F13DC4
P 7925 5150
F 0 "P4" H 7875 5050 40  0000 L CNN
F 1 "Mount4" H 7925 5100 30  0000 C CNN
F 2 "otto:MountingHole_M3-3.5mm" H 7925 5150 60  0001 C CNN
F 3 "" H 7925 5150 60  0000 C CNN
	1    7925 5150
	-1   0    0    1   
$EndComp
NoConn ~ 7625 4950
NoConn ~ 8075 4950
NoConn ~ 8075 5150
NoConn ~ 7625 5150
Text Notes 6300 2425 0    79   ~ 16
Virtual Ground
Text Notes 3075 2475 0    79   ~ 16
Power Input
Text Notes 7575 4650 0    79   ~ 16
Mounting
$Comp
L KomaFieldKit-PR3-rescue:AGND #PWR04
U 1 1 57F67045
P 2600 3200
F 0 "#PWR04" H 2600 3200 40  0001 C CNN
F 1 "AGND" H 2600 3130 50  0000 C CNN
F 2 "" H 2600 3200 60  0000 C CNN
F 3 "" H 2600 3200 60  0000 C CNN
	1    2600 3200
	1    0    0    -1  
$EndComp
Connection ~ 3150 2750
Wire Wire Line
	3150 2750 3150 2800
Wire Wire Line
	2600 2850 2600 2750
Wire Wire Line
	2550 2850 2600 2850
Wire Wire Line
	7075 3100 7125 3100
Connection ~ 7125 2750
Wire Wire Line
	6025 2750 7125 2750
Connection ~ 6025 3200
Wire Wire Line
	6025 3200 6025 3300
Connection ~ 5725 3200
Wire Wire Line
	5425 3200 5725 3200
Wire Wire Line
	6075 3000 6025 3000
Wire Wire Line
	6025 3000 6025 2750
Connection ~ 7425 2750
Wire Wire Line
	7725 2700 7725 2750
Connection ~ 7725 2750
Wire Wire Line
	2450 5175 2450 5225
Wire Wire Line
	2450 4275 2450 4325
Wire Wire Line
	7125 3100 7125 2750
Wire Wire Line
	5425 2600 5425 2750
Wire Wire Line
	5425 3050 5425 3200
Wire Wire Line
	7425 3250 7425 3200
Wire Wire Line
	2450 4325 2950 4325
Wire Wire Line
	2950 4325 2950 4625
Connection ~ 2450 4325
Wire Wire Line
	2950 5225 2450 5225
Wire Wire Line
	2950 4925 2950 5225
Connection ~ 2450 5225
Wire Notes Line
	8225 4700 8225 5300
Wire Notes Line
	8225 5300 7475 5300
Wire Notes Line
	7475 5300 7475 4700
Wire Notes Line
	7475 4700 8225 4700
Wire Wire Line
	7125 2750 7425 2750
Wire Wire Line
	6025 3200 6075 3200
Wire Wire Line
	5725 3200 6025 3200
Wire Wire Line
	3725 2750 3725 2800
Wire Wire Line
	7425 2750 7725 2750
Wire Wire Line
	7725 2750 7725 2900
Wire Wire Line
	2450 4325 2450 4375
Wire Wire Line
	2450 5225 2450 5275
$Comp
L Connector_Generic:Conn_01x02 J1
U 1 1 5DC02DAD
P 2350 2950
F 0 "J1" H 2268 2625 50  0000 C CNN
F 1 "Power Input" H 2268 2716 50  0000 C CNN
F 2 "Connector_PinSocket_2.54mm:PinSocket_1x02_P2.54mm_Vertical" H 2350 2950 50  0001 C CNN
F 3 "~" H 2350 2950 50  0001 C CNN
	1    2350 2950
	-1   0    0    1   
$EndComp
Wire Wire Line
	2600 2950 2550 2950
$Comp
L KomaFieldKit-PR3-rescue:VCC #PWR03
U 1 1 5DC04545
P 4025 2750
F 0 "#PWR03" H 4025 2850 30  0001 C CNN
F 1 "VCC" H 4025 2875 30  0000 C CNN
F 2 "" H 4025 2750 60  0000 C CNN
F 3 "" H 4025 2750 60  0000 C CNN
	1    4025 2750
	1    0    0    -1  
$EndComp
Wire Wire Line
	3150 2750 3725 2750
Connection ~ 3725 2750
Wire Wire Line
	3725 2750 4025 2750
$Comp
L Device:D_ALT D1
U 1 1 5DC2E7B3
P 3150 2950
F 0 "D1" V 3104 3029 50  0000 L CNN
F 1 "D_ALT" V 3195 3029 50  0000 L CNN
F 2 "Diode_THT:D_5W_P12.70mm_Horizontal" H 3150 2950 50  0001 C CNN
F 3 "~" H 3150 2950 50  0001 C CNN
	1    3150 2950
	0    1    1    0   
$EndComp
$Comp
L Device:CP1 C1
U 1 1 5DC30790
P 3725 2950
F 0 "C1" H 3840 2996 50  0000 L CNN
F 1 "10uF" H 3840 2905 50  0000 L CNN
F 2 "Capacitor_THT:CP_Radial_D6.3mm_P2.50mm" H 3725 2950 50  0001 C CNN
F 3 "~" H 3725 2950 50  0001 C CNN
	1    3725 2950
	1    0    0    -1  
$EndComp
Wire Wire Line
	4025 2800 4025 2750
Wire Wire Line
	4025 3100 3725 3100
Connection ~ 3150 3100
Wire Wire Line
	3150 3100 2600 3100
Connection ~ 3725 3100
Wire Wire Line
	3725 3100 3150 3100
Wire Wire Line
	2600 2950 2600 3100
Wire Wire Line
	2600 3200 2600 3100
Connection ~ 2600 3100
Connection ~ 4025 2750
$Comp
L Device:CP1 C5
U 1 1 5DC3F9D4
P 5725 3450
F 0 "C5" H 5840 3496 50  0000 L CNN
F 1 "10uF" H 5840 3405 50  0000 L CNN
F 2 "Capacitor_THT:CP_Radial_D6.3mm_P2.50mm" H 5725 3450 50  0001 C CNN
F 3 "~" H 5725 3450 50  0001 C CNN
	1    5725 3450
	1    0    0    -1  
$EndComp
Wire Wire Line
	5425 3300 5425 3200
Connection ~ 5425 3200
Wire Wire Line
	5725 3200 5725 3300
$Comp
L Device:CP1 C3
U 1 1 5DC43C87
P 7425 3050
F 0 "C3" H 7540 3096 50  0000 L CNN
F 1 "10uF" H 7540 3005 50  0000 L CNN
F 2 "Capacitor_THT:CP_Radial_D6.3mm_P2.50mm" H 7425 3050 50  0001 C CNN
F 3 "~" H 7425 3050 50  0001 C CNN
	1    7425 3050
	1    0    0    -1  
$EndComp
Wire Wire Line
	5425 3650 5425 3600
$Comp
L KomaFieldKit-PR3-rescue:AGND #PWR?
U 1 1 5DC45B69
P 7725 3250
AR Path="/5DC45B69" Ref="#PWR?"  Part="1" 
AR Path="/56CC38FC/5DC45B69" Ref="#PWR?"  Part="1" 
AR Path="/5DAA151B/5DC45B69" Ref="#PWR0101"  Part="1" 
F 0 "#PWR0101" H 7725 3250 40  0001 C CNN
F 1 "AGND" H 7725 3180 50  0000 C CNN
F 2 "" H 7725 3250 60  0000 C CNN
F 3 "" H 7725 3250 60  0000 C CNN
	1    7725 3250
	1    0    0    -1  
$EndComp
Wire Wire Line
	7725 3250 7725 3200
Wire Wire Line
	5725 3650 5725 3600
Wire Wire Line
	6025 3650 6025 3600
$Comp
L KomaFieldKit-PR3-rescue:AGND #PWR?
U 1 1 5DC468A3
P 5725 3650
AR Path="/5DC468A3" Ref="#PWR?"  Part="1" 
AR Path="/56CC38FC/5DC468A3" Ref="#PWR?"  Part="1" 
AR Path="/5DAA151B/5DC468A3" Ref="#PWR0102"  Part="1" 
F 0 "#PWR0102" H 5725 3650 40  0001 C CNN
F 1 "AGND" H 5725 3580 50  0000 C CNN
F 2 "" H 5725 3650 60  0000 C CNN
F 3 "" H 5725 3650 60  0000 C CNN
	1    5725 3650
	1    0    0    -1  
$EndComp
$Comp
L KomaFieldKit-PR3-rescue:AGND #PWR?
U 1 1 5DC48E04
P 6025 3650
AR Path="/5DC48E04" Ref="#PWR?"  Part="1" 
AR Path="/56CC38FC/5DC48E04" Ref="#PWR?"  Part="1" 
AR Path="/5DAA151B/5DC48E04" Ref="#PWR0103"  Part="1" 
F 0 "#PWR0103" H 6025 3650 40  0001 C CNN
F 1 "AGND" H 6025 3580 50  0000 C CNN
F 2 "" H 6025 3650 60  0000 C CNN
F 3 "" H 6025 3650 60  0000 C CNN
	1    6025 3650
	1    0    0    -1  
$EndComp
$Comp
L KomaFieldKit-PR3-rescue:AGND #PWR?
U 1 1 5DC44432
P 5425 3650
AR Path="/5DC44432" Ref="#PWR?"  Part="1" 
AR Path="/56CC38FC/5DC44432" Ref="#PWR?"  Part="1" 
AR Path="/5DAA151B/5DC44432" Ref="#PWR0104"  Part="1" 
F 0 "#PWR0104" H 5425 3650 40  0001 C CNN
F 1 "AGND" H 5425 3580 50  0000 C CNN
F 2 "" H 5425 3650 60  0000 C CNN
F 3 "" H 5425 3650 60  0000 C CNN
	1    5425 3650
	1    0    0    -1  
$EndComp
$Comp
L KomaFieldKit-PR3-rescue:TL072 U1
U 3 1 5DC9A2F6
P 2550 4775
F 0 "U1" H 2500 4975 60  0000 L CNN
F 1 "TL072" H 2500 4525 60  0000 L CNN
F 2 "Package_DIP:DIP-8_W7.62mm_LongPads" H 2550 4775 60  0001 C CNN
F 3 "" H 2550 4775 60  0000 C CNN
	3    2550 4775
	1    0    0    -1  
$EndComp
$Comp
L KomaFieldKit-PR3-rescue:C C8
U 1 1 5DCE4379
P 3950 4775
F 0 "C8" H 4000 4875 50  0000 L CNN
F 1 "100n" H 4000 4675 50  0000 L CNN
F 2 "Capacitor_THT:C_Rect_L7.2mm_W2.5mm_P5.00mm_FKS2_FKP2_MKS2_MKP2" H 3950 4775 60  0001 C CNN
F 3 "" H 3950 4775 60  0000 C CNN
	1    3950 4775
	1    0    0    -1  
$EndComp
Wire Wire Line
	3950 4325 3950 4625
Wire Wire Line
	3950 4925 3950 5225
$Comp
L chrisi_lib:TL074 U2
U 5 1 5DCE4385
P 3550 4775
F 0 "U2" H 3500 4975 60  0000 L CNN
F 1 "TL074" H 3500 4525 60  0000 L CNN
F 2 "Package_DIP:DIP-14_W7.62mm_Socket_LongPads" H 3550 4775 60  0001 C CNN
F 3 "" H 3550 4775 60  0000 C CNN
	5    3550 4775
	1    0    0    -1  
$EndComp
$Comp
L KomaFieldKit-PR3-rescue:C C9
U 1 1 5DCE7E29
P 4950 4775
F 0 "C9" H 5000 4875 50  0000 L CNN
F 1 "100n" H 5000 4675 50  0000 L CNN
F 2 "Capacitor_THT:C_Rect_L7.2mm_W2.5mm_P5.00mm_FKS2_FKP2_MKS2_MKP2" H 4950 4775 60  0001 C CNN
F 3 "" H 4950 4775 60  0000 C CNN
	1    4950 4775
	1    0    0    -1  
$EndComp
Wire Wire Line
	4950 4325 4950 4625
Wire Wire Line
	4950 4925 4950 5225
Wire Wire Line
	2950 5225 3450 5225
Connection ~ 2950 5225
Connection ~ 3950 5225
Wire Wire Line
	3950 5225 4450 5225
Wire Wire Line
	4950 4325 4450 4325
Connection ~ 2950 4325
Connection ~ 3950 4325
Wire Wire Line
	3950 4325 3450 4325
Wire Wire Line
	3450 5175 3450 5225
Connection ~ 3450 5225
Wire Wire Line
	3450 5225 3950 5225
Wire Wire Line
	4450 5175 4450 5225
Connection ~ 4450 5225
Wire Wire Line
	4450 5225 4950 5225
Wire Wire Line
	3450 4375 3450 4325
Connection ~ 3450 4325
Wire Wire Line
	3450 4325 2950 4325
Wire Wire Line
	4450 4375 4450 4325
Connection ~ 4450 4325
Wire Wire Line
	4450 4325 3950 4325
$Comp
L KomaFieldKit-PR3-rescue:VCC #PWR0114
U 1 1 5DCF01C2
P 6325 4425
F 0 "#PWR0114" H 6325 4525 30  0001 C CNN
F 1 "VCC" H 6325 4550 30  0000 C CNN
F 2 "" H 6325 4425 60  0000 C CNN
F 3 "" H 6325 4425 60  0000 C CNN
	1    6325 4425
	1    0    0    -1  
$EndComp
$Comp
L KomaFieldKit-PR3-rescue:R R17
U 1 1 5DCF0686
P 6325 4575
F 0 "R17" V 6405 4575 50  0000 C CNN
F 1 "1k" V 6325 4575 50  0000 C CNN
F 2 "Resistor_THT:R_Axial_DIN0207_L6.3mm_D2.5mm_P10.16mm_Horizontal" H 6325 4575 60  0001 C CNN
F 3 "" H 6325 4575 60  0000 C CNN
	1    6325 4575
	1    0    0    -1  
$EndComp
$Comp
L Device:LED_ALT D2
U 1 1 5DCF0F20
P 6325 4875
F 0 "D2" V 6364 4757 50  0000 R CNN
F 1 "LED_ALT" V 6273 4757 50  0000 R CNN
F 2 "LED_THT:LED_D3.0mm" H 6325 4875 50  0001 C CNN
F 3 "~" H 6325 4875 50  0001 C CNN
	1    6325 4875
	0    -1   -1   0   
$EndComp
$Comp
L KomaFieldKit-PR3-rescue:AGND #PWR?
U 1 1 5DCF1297
P 6325 5075
AR Path="/5DCF1297" Ref="#PWR?"  Part="1" 
AR Path="/56CC38FC/5DCF1297" Ref="#PWR?"  Part="1" 
AR Path="/5DAA151B/5DCF1297" Ref="#PWR0115"  Part="1" 
F 0 "#PWR0115" H 6325 5075 40  0001 C CNN
F 1 "AGND" H 6325 5005 50  0000 C CNN
F 2 "" H 6325 5075 60  0000 C CNN
F 3 "" H 6325 5075 60  0000 C CNN
	1    6325 5075
	1    0    0    -1  
$EndComp
Wire Wire Line
	6325 5075 6325 5025
Text Notes 6100 4175 0    79   ~ 16
ON LED
Wire Wire Line
	7425 2750 7425 2900
$Comp
L chrisi_lib:TL074 U3
U 5 1 5DD69335
P 4550 4775
F 0 "U3" H 4500 4975 60  0000 L CNN
F 1 "TL074" H 4500 4525 60  0000 L CNN
F 2 "Package_DIP:DIP-14_W7.62mm_Socket_LongPads" H 4550 4775 60  0001 C CNN
F 3 "" H 4550 4775 60  0000 C CNN
	5    4550 4775
	1    0    0    -1  
$EndComp
Wire Wire Line
	2600 2750 3150 2750
$EndSCHEMATC
