G04 #@! TF.GenerationSoftware,KiCad,Pcbnew,5.1.5-52549c5~84~ubuntu18.04.1*
G04 #@! TF.CreationDate,2019-12-06T12:56:23+01:00*
G04 #@! TF.ProjectId,BertoldMeyer,42657274-6f6c-4644-9d65-7965722e6b69,rev?*
G04 #@! TF.SameCoordinates,PX5fd8220PY6bc3e40*
G04 #@! TF.FileFunction,Legend,Bot*
G04 #@! TF.FilePolarity,Positive*
%FSLAX46Y46*%
G04 Gerber Fmt 4.6, Leading zero omitted, Abs format (unit mm)*
G04 Created by KiCad (PCBNEW 5.1.5-52549c5~84~ubuntu18.04.1) date 2019-12-06 12:56:23*
%MOMM*%
%LPD*%
G04 APERTURE LIST*
%ADD10C,0.100000*%
G04 APERTURE END LIST*
D10*
X80000000Y0D02*
X0Y0D01*
X80000000Y47000000D02*
X80000000Y0D01*
X0Y47000000D02*
X80000000Y47000000D01*
X0Y0D02*
X0Y47000000D01*
M02*
