EESchema Schematic File Version 4
EELAYER 30 0
EELAYER END
$Descr A3 16535 11693
encoding utf-8
Sheet 3 5
Title "Bertolt Meyer SynLimb CV Interfaces"
Date "2021-03-23"
Rev "Proto2"
Comp "Christian Zollner"
Comment1 ""
Comment2 ""
Comment3 ""
Comment4 ""
$EndDescr
Text Notes 4276 4515 0    118  ~ 24
CV Channel B
Text Notes 4275 975  0    118  ~ 24
CV Channel A
$Comp
L KomaFieldKit-PR3-rescue:TLV274 U2
U 2 1 5DACBD6F
P 2600 1750
F 0 "U2" H 2650 1950 60  0000 C CNN
F 1 "TL074" H 2750 1550 50  0000 C CNN
F 2 "Package_SO:SOIC-14_3.9x8.7mm_P1.27mm" H 2600 1750 60  0001 C CNN
F 3 "" H 2600 1750 60  0000 C CNN
	2    2600 1750
	1    0    0    -1  
$EndComp
$Comp
L KomaFieldKit-PR3-rescue:R R8
U 1 1 5DACBD83
P 2100 2500
F 0 "R8" V 2180 2500 50  0000 C CNN
F 1 "10k" V 2100 2500 50  0000 C CNN
F 2 "Resistor_SMD:R_1206_3216Metric_Pad1.42x1.75mm_HandSolder" V 2030 2500 50  0001 C CNN
F 3 "" H 2100 2500 50  0000 C CNN
	1    2100 2500
	1    0    0    -1  
$EndComp
$Comp
L KomaFieldKit-PR3-rescue:AGND #PWR015
U 1 1 5DACBD8D
P 2100 2700
F 0 "#PWR015" H 2100 2700 40  0001 C CNN
F 1 "AGND" H 2100 2630 50  0000 C CNN
F 2 "" H 2100 2700 60  0000 C CNN
F 3 "" H 2100 2700 60  0000 C CNN
	1    2100 2700
	1    0    0    -1  
$EndComp
$Comp
L KomaFieldKit-PR3-rescue:R R9
U 1 1 5DACBDB6
P 3950 2700
F 0 "R9" V 4030 2700 50  0000 C CNN
F 1 "47k" V 3950 2700 50  0000 C CNN
F 2 "Resistor_SMD:R_1206_3216Metric_Pad1.42x1.75mm_HandSolder" V 3880 2700 50  0001 C CNN
F 3 "" H 3950 2700 50  0000 C CNN
	1    3950 2700
	1    0    0    -1  
$EndComp
$Comp
L KomaFieldKit-PR3-rescue:R R3
U 1 1 5DACBDC0
P 3400 1750
F 0 "R3" V 3480 1750 50  0000 C CNN
F 1 "100k" V 3400 1750 50  0000 C CNN
F 2 "Resistor_SMD:R_1206_3216Metric_Pad1.42x1.75mm_HandSolder" V 3330 1750 50  0001 C CNN
F 3 "" H 3400 1750 50  0000 C CNN
	1    3400 1750
	0    1    1    0   
$EndComp
$Comp
L KomaFieldKit-PR3-rescue:TLV274 U2
U 4 1 5DACBDDE
P 4550 1850
F 0 "U2" H 4600 2050 60  0000 C CNN
F 1 "TL074" H 4700 1650 50  0000 C CNN
F 2 "Package_SO:SOIC-14_3.9x8.7mm_P1.27mm" H 4550 1850 60  0001 C CNN
F 3 "" H 4550 1850 60  0000 C CNN
	4    4550 1850
	1    0    0    -1  
$EndComp
$Comp
L KomaFieldKit-PR3-rescue:R R7
U 1 1 5DACBDE8
P 4450 2300
F 0 "R7" V 4530 2300 50  0000 C CNN
F 1 "100k" V 4450 2300 50  0000 C CNN
F 2 "Resistor_SMD:R_1206_3216Metric_Pad1.42x1.75mm_HandSolder" V 4380 2300 50  0001 C CNN
F 3 "" H 4450 2300 50  0000 C CNN
	1    4450 2300
	0    1    1    0   
$EndComp
Wire Wire Line
	2100 2700 2100 2650
Wire Wire Line
	3950 1950 4050 1950
$Comp
L power:VCC #PWR0107
U 1 1 5DC8D46C
P 2800 2740
F 0 "#PWR0107" H 2800 2590 50  0001 C CNN
F 1 "VCC" H 2800 2885 30  0000 C CNN
F 2 "" H 2800 2740 50  0001 C CNN
F 3 "" H 2800 2740 50  0001 C CNN
	1    2800 2740
	1    0    0    -1  
$EndComp
Wire Wire Line
	2800 2740 2800 2800
Wire Wire Line
	2800 3200 2800 3100
$Comp
L KomaFieldKit-PR3-rescue:POT RV-Offset1
U 1 1 5DACBD97
P 2800 2950
F 0 "RV-Offset1" H 2795 2850 50  0000 C CNN
F 1 "100k" H 2800 2950 50  0000 C CNN
F 2 "KOMA:KOMA_RK0903N" H 2800 2950 50  0001 C CNN
F 3 "" H 2800 2950 50  0000 C CNN
	1    2800 2950
	0    1    1    0   
$EndComp
$Comp
L KomaFieldKit-PR3-rescue:POT RV-Gain1
U 1 1 5DB83349
P 2800 2300
F 0 "RV-Gain1" H 2795 2200 50  0000 C CNN
F 1 "100k" H 2800 2300 50  0000 C CNN
F 2 "KOMA:KOMA_RK0903N" H 2800 2300 50  0001 C CNN
F 3 "" H 2800 2300 50  0000 C CNN
	1    2800 2300
	1    0    0    -1  
$EndComp
$Comp
L KomaFieldKit-PR3-rescue:AGND #PWR016
U 1 1 5DACBDA1
P 2800 3200
F 0 "#PWR016" H 2800 3200 40  0001 C CNN
F 1 "AGND" H 2800 3130 50  0000 C CNN
F 2 "" H 2800 3200 60  0000 C CNN
F 3 "" H 2800 3200 60  0000 C CNN
	1    2800 3200
	1    0    0    -1  
$EndComp
$Comp
L KomaFieldKit-PR3-rescue:R R5
U 1 1 5DBA6013
P 3800 1500
F 0 "R5" V 3880 1500 50  0000 C CNN
F 1 "100k" V 3800 1500 50  0000 C CNN
F 2 "Resistor_SMD:R_1206_3216Metric_Pad1.42x1.75mm_HandSolder" V 3730 1500 50  0001 C CNN
F 3 "" H 3800 1500 50  0000 C CNN
	1    3800 1500
	-1   0    0    1   
$EndComp
$Comp
L KomaFieldKit-PR3-rescue:VV #PWR0118
U 1 1 5DBA601D
P 3800 1300
F 0 "#PWR0118" H 3800 1400 30  0001 C CNN
F 1 "VV" H 3800 1400 30  0000 C CNN
F 2 "" H 3800 1300 60  0000 C CNN
F 3 "" H 3800 1300 60  0000 C CNN
	1    3800 1300
	1    0    0    -1  
$EndComp
Text Notes 2035 1500 2    79   ~ 0
Input 0V - 1,5V
Connection ~ 5050 1850
Wire Wire Line
	1850 2165 1850 2065
$Comp
L KomaFieldKit-PR3-rescue:AGND #PWR0119
U 1 1 5E4EC629
P 1850 2165
F 0 "#PWR0119" H 1850 2165 40  0001 C CNN
F 1 "AGND" H 1850 2095 50  0000 C CNN
F 2 "" H 1850 2165 60  0000 C CNN
F 3 "" H 1850 2165 60  0000 C CNN
	1    1850 2165
	1    0    0    -1  
$EndComp
Wire Wire Line
	1850 1765 1850 1650
$Comp
L KomaFieldKit-PR3-rescue:R R20
U 1 1 5E4E71AD
P 1850 1915
F 0 "R20" V 1930 1915 50  0000 C CNN
F 1 "1M" V 1850 1915 50  0000 C CNN
F 2 "Resistor_SMD:R_1206_3216Metric_Pad1.42x1.75mm_HandSolder" V 1780 1915 50  0001 C CNN
F 3 "" H 1850 1915 50  0000 C CNN
	1    1850 1915
	-1   0    0    1   
$EndComp
Text GLabel 5250 1850 2    39   Output ~ 8
CV-A
Text GLabel 5250 5400 2    39   Output ~ 8
CV-B
$Comp
L KomaFieldKit-PR3-rescue:POT RV-Offset2
U 1 1 5DCA2ECD
P 2720 6495
F 0 "RV-Offset2" H 2715 6395 50  0000 C CNN
F 1 "100k" H 2720 6495 50  0000 C CNN
F 2 "KOMA:KOMA_RK0903N" H 2720 6495 50  0001 C CNN
F 3 "" H 2720 6495 50  0000 C CNN
	1    2720 6495
	0    1    1    0   
$EndComp
$Comp
L KomaFieldKit-PR3-rescue:AGND #PWR0113
U 1 1 5DCA2EC3
P 2720 6745
F 0 "#PWR0113" H 2720 6745 40  0001 C CNN
F 1 "AGND" H 2720 6675 50  0000 C CNN
F 2 "" H 2720 6745 60  0000 C CNN
F 3 "" H 2720 6745 60  0000 C CNN
	1    2720 6745
	1    0    0    -1  
$EndComp
$Comp
L KomaFieldKit-PR3-rescue:TLV274 U3
U 3 1 5DCA2EB9
P 3450 6595
F 0 "U3" H 3500 6795 60  0000 C CNN
F 1 "TL074" H 3600 6395 50  0000 C CNN
F 2 "Package_SO:SOIC-14_3.9x8.7mm_P1.27mm" H 3450 6595 60  0001 C CNN
F 3 "" H 3450 6595 60  0000 C CNN
	3    3450 6595
	1    0    0    -1  
$EndComp
Wire Wire Line
	2720 6745 2720 6645
Wire Wire Line
	2720 6285 2720 6345
Wire Wire Line
	2950 6695 2950 6875
Wire Wire Line
	2950 6875 3950 6875
Wire Wire Line
	2950 6495 2870 6495
$Comp
L power:VCC #PWR0112
U 1 1 5DCA2EA9
P 2720 6285
F 0 "#PWR0112" H 2720 6135 50  0001 C CNN
F 1 "VCC" H 2720 6430 30  0000 C CNN
F 2 "" H 2720 6285 50  0001 C CNN
F 3 "" H 2720 6285 50  0001 C CNN
	1    2720 6285
	1    0    0    -1  
$EndComp
Wire Wire Line
	3950 5500 4050 5500
Wire Wire Line
	3950 4840 3950 4900
$Comp
L KomaFieldKit-PR3-rescue:R R14
U 1 1 5DCA2E49
P 4500 5800
F 0 "R14" V 4580 5800 50  0000 C CNN
F 1 "100k" V 4500 5800 50  0000 C CNN
F 2 "Resistor_SMD:R_1206_3216Metric_Pad1.42x1.75mm_HandSolder" V 4430 5800 50  0001 C CNN
F 3 "" H 4500 5800 50  0000 C CNN
	1    4500 5800
	0    1    1    0   
$EndComp
$Comp
L KomaFieldKit-PR3-rescue:TLV274 U3
U 4 1 5DCA2E3F
P 4550 5400
F 0 "U3" H 4600 5600 60  0000 C CNN
F 1 "TL074" H 4700 5200 50  0000 C CNN
F 2 "Package_SO:SOIC-14_3.9x8.7mm_P1.27mm" H 4550 5400 60  0001 C CNN
F 3 "" H 4550 5400 60  0000 C CNN
	4    4550 5400
	1    0    0    -1  
$EndComp
$Comp
L KomaFieldKit-PR3-rescue:VV #PWR0109
U 1 1 5DCA2E35
P 3950 4840
F 0 "#PWR0109" H 3950 4940 30  0001 C CNN
F 1 "VV" H 3950 4940 30  0000 C CNN
F 2 "" H 3950 4840 60  0000 C CNN
F 3 "" H 3950 4840 60  0000 C CNN
	1    3950 4840
	1    0    0    -1  
$EndComp
$Comp
L KomaFieldKit-PR3-rescue:R R10
U 1 1 5DCA2E2B
P 3950 5050
F 0 "R10" V 4030 5050 50  0000 C CNN
F 1 "100k" V 3950 5050 50  0000 C CNN
F 2 "Resistor_SMD:R_1206_3216Metric_Pad1.42x1.75mm_HandSolder" V 3880 5050 50  0001 C CNN
F 3 "" H 3950 5050 50  0000 C CNN
	1    3950 5050
	-1   0    0    1   
$EndComp
$Comp
L KomaFieldKit-PR3-rescue:R R11
U 1 1 5DCA2E21
P 3600 5300
F 0 "R11" V 3680 5300 50  0000 C CNN
F 1 "100k" V 3600 5300 50  0000 C CNN
F 2 "Resistor_SMD:R_1206_3216Metric_Pad1.42x1.75mm_HandSolder" V 3530 5300 50  0001 C CNN
F 3 "" H 3600 5300 50  0000 C CNN
	1    3600 5300
	0    1    1    0   
$EndComp
$Comp
L KomaFieldKit-PR3-rescue:AGND #PWR0108
U 1 1 5DCA2E0D
P 2250 6250
F 0 "#PWR0108" H 2250 6250 40  0001 C CNN
F 1 "AGND" H 2250 6180 50  0000 C CNN
F 2 "" H 2250 6250 60  0000 C CNN
F 3 "" H 2250 6250 60  0000 C CNN
	1    2250 6250
	1    0    0    -1  
$EndComp
Wire Wire Line
	5050 5400 5250 5400
Wire Wire Line
	3950 1950 3950 2300
Wire Wire Line
	4600 2300 5050 2300
Wire Wire Line
	4300 2300 3950 2300
Wire Wire Line
	5050 1850 5050 2300
Wire Wire Line
	5250 1850 5050 1850
$Comp
L KomaFieldKit-PR3-rescue:TLV274 U2
U 3 1 5DACBDAC
P 3450 3050
F 0 "U2" H 3500 3250 60  0000 C CNN
F 1 "TL074" H 3600 2850 50  0000 C CNN
F 2 "Package_SO:SOIC-14_3.9x8.7mm_P1.27mm" H 3450 3050 60  0001 C CNN
F 3 "" H 3450 3050 60  0000 C CNN
	3    3450 3050
	1    0    0    -1  
$EndComp
Wire Wire Line
	2950 3150 2950 3550
Wire Wire Line
	2950 3550 3950 3550
Wire Wire Line
	3950 3550 3950 3050
Wire Wire Line
	3800 1750 3800 1650
Wire Wire Line
	3800 1750 4050 1750
Wire Wire Line
	3800 1350 3800 1300
Wire Wire Line
	3100 1750 3250 1750
Wire Wire Line
	3550 1750 3800 1750
Connection ~ 3800 1750
Wire Wire Line
	3100 1750 3100 2150
Connection ~ 3100 1750
Wire Wire Line
	2800 2150 3100 2150
Wire Wire Line
	2950 2300 3100 2300
Wire Wire Line
	3100 2300 3100 2150
Connection ~ 3100 2150
Wire Wire Line
	2650 2300 2550 2300
Wire Wire Line
	2100 1850 2100 2300
$Comp
L KomaFieldKit-PR3-rescue:R R6
U 1 1 5DB9D3B0
P 2400 2300
F 0 "R6" V 2480 2300 50  0000 C CNN
F 1 "1k" V 2400 2300 50  0000 C CNN
F 2 "Resistor_SMD:R_1206_3216Metric_Pad1.42x1.75mm_HandSolder" V 2330 2300 50  0001 C CNN
F 3 "" H 2400 2300 50  0000 C CNN
	1    2400 2300
	0    1    1    0   
$EndComp
Wire Wire Line
	2250 2300 2100 2300
Connection ~ 2100 2300
Wire Wire Line
	2100 2300 2100 2350
Wire Wire Line
	2100 1650 1850 1650
Wire Wire Line
	1850 1650 1500 1650
Connection ~ 1850 1650
Wire Wire Line
	3950 2850 3950 3050
Connection ~ 3950 3050
Wire Wire Line
	3950 2550 3950 2300
Connection ~ 3950 2300
Connection ~ 5050 5400
$Comp
L KomaFieldKit-PR3-rescue:AGND #PWR0142
U 1 1 606071DF
P 10400 1650
F 0 "#PWR0142" H 10400 1650 40  0001 C CNN
F 1 "AGND" H 10400 1580 50  0000 C CNN
F 2 "" H 10400 1650 60  0000 C CNN
F 3 "" H 10400 1650 60  0000 C CNN
	1    10400 1650
	1    0    0    -1  
$EndComp
$Comp
L KomaFieldKit-PR3-rescue:VV #PWR0143
U 1 1 606076B5
P 10400 2050
F 0 "#PWR0143" H 10400 2150 30  0001 C CNN
F 1 "VV" H 10400 2150 30  0000 C CNN
F 2 "" H 10400 2050 60  0000 C CNN
F 3 "" H 10400 2050 60  0000 C CNN
	1    10400 2050
	1    0    0    -1  
$EndComp
$Comp
L power:VCC #PWR0144
U 1 1 606076BF
P 10400 1350
F 0 "#PWR0144" H 10400 1200 50  0001 C CNN
F 1 "VCC" H 10400 1495 30  0000 C CNN
F 2 "" H 10400 1350 50  0001 C CNN
F 3 "" H 10400 1350 50  0001 C CNN
	1    10400 1350
	1    0    0    -1  
$EndComp
Text GLabel 10050 1450 2    39   Input ~ 0
+12V
Text GLabel 10050 1650 2    39   Input ~ 0
-12V
$Comp
L power:GNDPWR #PWR0145
U 1 1 6062E4B4
P 10050 2250
F 0 "#PWR0145" H 10050 2050 50  0001 C CNN
F 1 "GNDPWR" H 10054 2096 50  0000 C CNN
F 2 "" H 10050 2200 50  0001 C CNN
F 3 "" H 10050 2200 50  0001 C CNN
	1    10050 2250
	1    0    0    -1  
$EndComp
Wire Wire Line
	9950 2050 10400 2050
Wire Wire Line
	10050 2250 10050 2150
Wire Wire Line
	10050 2150 9950 2150
Wire Wire Line
	10400 1650 10400 1550
Wire Wire Line
	10400 1550 9950 1550
Wire Wire Line
	9950 1350 10400 1350
Wire Wire Line
	10050 1450 9950 1450
Wire Wire Line
	9950 1650 10050 1650
$Comp
L SynLimb-Proto2-rescue:ISO124U-chrisi_lib U?
U 1 1 606605AA
P 9250 5300
AR Path="/606605AA" Ref="U?"  Part="1" 
AR Path="/5DAA23CB/606605AA" Ref="U6"  Part="1" 
F 0 "U6" H 9250 5970 50  0000 C CNN
F 1 "ISO124U" H 9250 5879 50  0000 C CNN
F 2 "SOIC127P1033X265-8N" H 9250 5300 50  0001 L BNN
F 3 "" H 9250 5300 50  0001 L BNN
	1    9250 5300
	1    0    0    -1  
$EndComp
Text GLabel 6350 5300 0    39   Input ~ 8
CV-B
$Comp
L KomaFieldKit-PR3-rescue:AGND #PWR0146
U 1 1 60660A8E
P 10400 5200
F 0 "#PWR0146" H 10400 5200 40  0001 C CNN
F 1 "AGND" H 10400 5130 50  0000 C CNN
F 2 "" H 10400 5200 60  0000 C CNN
F 3 "" H 10400 5200 60  0000 C CNN
	1    10400 5200
	1    0    0    -1  
$EndComp
$Comp
L KomaFieldKit-PR3-rescue:VV #PWR0147
U 1 1 60660A98
P 10400 5600
F 0 "#PWR0147" H 10400 5700 30  0001 C CNN
F 1 "VV" H 10400 5700 30  0000 C CNN
F 2 "" H 10400 5600 60  0000 C CNN
F 3 "" H 10400 5600 60  0000 C CNN
	1    10400 5600
	1    0    0    -1  
$EndComp
$Comp
L power:VCC #PWR0148
U 1 1 60660AA2
P 10400 4900
F 0 "#PWR0148" H 10400 4750 50  0001 C CNN
F 1 "VCC" H 10400 5045 30  0000 C CNN
F 2 "" H 10400 4900 50  0001 C CNN
F 3 "" H 10400 4900 50  0001 C CNN
	1    10400 4900
	1    0    0    -1  
$EndComp
Text GLabel 10050 5000 2    39   Input ~ 0
+12V
Text GLabel 10050 5200 2    39   Input ~ 0
-12V
$Comp
L power:GNDPWR #PWR0149
U 1 1 60660AAE
P 10050 5800
F 0 "#PWR0149" H 10050 5600 50  0001 C CNN
F 1 "GNDPWR" H 10054 5646 50  0000 C CNN
F 2 "" H 10050 5750 50  0001 C CNN
F 3 "" H 10050 5750 50  0001 C CNN
	1    10050 5800
	1    0    0    -1  
$EndComp
Wire Wire Line
	9950 5600 10400 5600
Wire Wire Line
	10050 5800 10050 5700
Wire Wire Line
	10050 5700 9950 5700
Wire Wire Line
	10400 5200 10400 5100
Wire Wire Line
	10400 5100 9950 5100
Wire Wire Line
	9950 4900 10400 4900
Wire Wire Line
	10050 5000 9950 5000
Wire Wire Line
	9950 5200 10050 5200
Text Notes 6450 2400 2    79   ~ 0
Inverted CV
Connection ~ 6600 3100
Wire Wire Line
	6800 3100 6600 3100
Text GLabel 6800 3100 2    39   Output ~ 8
CV-A_inverted
Wire Wire Line
	5550 3200 5600 3200
Wire Wire Line
	5200 3000 5050 3000
Wire Wire Line
	6600 2550 6600 3100
Wire Wire Line
	6250 2550 6600 2550
Wire Wire Line
	5550 3000 5600 3000
Connection ~ 5550 3000
Wire Wire Line
	5550 2550 5950 2550
Wire Wire Line
	5550 3000 5550 2550
$Comp
L KomaFieldKit-PR3-rescue:R R21
U 1 1 5EF11E02
P 6100 2550
F 0 "R21" V 6180 2550 50  0000 C CNN
F 1 "100k" V 6100 2550 50  0000 C CNN
F 2 "Resistor_SMD:R_1206_3216Metric_Pad1.42x1.75mm_HandSolder" V 6030 2550 50  0001 C CNN
F 3 "" H 6100 2550 50  0000 C CNN
	1    6100 2550
	0    1    1    0   
$EndComp
Wire Wire Line
	5500 3000 5550 3000
$Comp
L KomaFieldKit-PR3-rescue:R R22
U 1 1 5EF0E576
P 5350 3000
F 0 "R22" V 5430 3000 50  0000 C CNN
F 1 "100k" V 5350 3000 50  0000 C CNN
F 2 "Resistor_SMD:R_1206_3216Metric_Pad1.42x1.75mm_HandSolder" V 5280 3000 50  0001 C CNN
F 3 "" H 5350 3000 50  0000 C CNN
	1    5350 3000
	0    1    1    0   
$EndComp
$Comp
L KomaFieldKit-PR3-rescue:VV #PWR0121
U 1 1 5EF0AA48
P 5550 3200
F 0 "#PWR0121" H 5550 3300 30  0001 C CNN
F 1 "VV" H 5550 3300 30  0000 C CNN
F 2 "" H 5550 3200 60  0000 C CNN
F 3 "" H 5550 3200 60  0000 C CNN
	1    5550 3200
	1    0    0    -1  
$EndComp
$Comp
L KomaFieldKit-PR3-rescue:TLV274 U2
U 1 1 5EF04961
P 6100 3100
F 0 "U2" H 6150 3300 60  0000 C CNN
F 1 "TL074" H 6250 2900 50  0000 C CNN
F 2 "Package_SO:SOIC-14_3.9x8.7mm_P1.27mm" H 6100 3100 60  0001 C CNN
F 3 "" H 6100 3100 60  0000 C CNN
	1    6100 3100
	1    0    0    1   
$EndComp
NoConn ~ 12800 1750
Wire Wire Line
	12750 1950 12800 1950
Wire Wire Line
	12650 1850 12800 1850
Wire Wire Line
	12750 1950 12750 2000
NoConn ~ 12785 5300
$Comp
L Connector:AudioJack2_SwitchT J3
U 1 1 5DCB64B6
P 12985 5400
F 0 "J3" H 12805 5333 50  0000 R CNN
F 1 "AudioJack2_SwitchT" H 12805 5424 50  0000 R CNN
F 2 "Connector_Audio:Jack_3.5mm_QingPu_WQP-PJ398SM_Vertical_CircularHoles" H 12985 5400 50  0001 C CNN
F 3 "~" H 12985 5400 50  0001 C CNN
	1    12985 5400
	-1   0    0    1   
$EndComp
$Comp
L Connector:AudioJack2_SwitchT J2
U 1 1 5DCB2494
P 13000 1850
F 0 "J2" H 12820 1783 50  0000 R CNN
F 1 "Output Jack" H 12820 1874 50  0000 R CNN
F 2 "Connector_Audio:Jack_3.5mm_QingPu_WQP-PJ398SM_Vertical_CircularHoles" H 13000 1850 50  0001 C CNN
F 3 "~" H 13000 1850 50  0001 C CNN
	1    13000 1850
	-1   0    0    1   
$EndComp
Wire Wire Line
	12650 5400 12785 5400
Wire Wire Line
	12730 5500 12785 5500
Wire Wire Line
	12730 5560 12730 5500
$Comp
L KomaFieldKit-PR3-rescue:AGND #PWR0111
U 1 1 5DCA2E9C
P 12730 5560
F 0 "#PWR0111" H 12730 5560 40  0001 C CNN
F 1 "AGND" H 12730 5490 50  0000 C CNN
F 2 "" H 12730 5560 60  0000 C CNN
F 3 "" H 12730 5560 60  0000 C CNN
	1    12730 5560
	-1   0    0    -1  
$EndComp
$Comp
L KomaFieldKit-PR3-rescue:R R12
U 1 1 5DCA2E53
P 12500 5400
F 0 "R12" V 12580 5400 50  0000 C CNN
F 1 "1k" V 12500 5400 50  0000 C CNN
F 2 "Resistor_SMD:R_1206_3216Metric_Pad1.42x1.75mm_HandSolder" V 12430 5400 50  0001 C CNN
F 3 "" H 12500 5400 50  0000 C CNN
	1    12500 5400
	0    1    1    0   
$EndComp
$Comp
L KomaFieldKit-PR3-rescue:AGND #PWR0106
U 1 1 5DC91035
P 12750 2000
F 0 "#PWR0106" H 12750 2000 40  0001 C CNN
F 1 "AGND" H 12750 1930 50  0000 C CNN
F 2 "" H 12750 2000 60  0000 C CNN
F 3 "" H 12750 2000 60  0000 C CNN
	1    12750 2000
	-1   0    0    -1  
$EndComp
$Comp
L KomaFieldKit-PR3-rescue:R R4
U 1 1 5DACBDF2
P 12500 1850
F 0 "R4" V 12580 1850 50  0000 C CNN
F 1 "1k" V 12500 1850 50  0000 C CNN
F 2 "Resistor_SMD:R_1206_3216Metric_Pad1.42x1.75mm_HandSolder" V 12430 1850 50  0001 C CNN
F 3 "" H 12500 1850 50  0000 C CNN
	1    12500 1850
	0    1    1    0   
$EndComp
Wire Notes Line
	12400 4180 1885 4180
$Comp
L KomaFieldKit-PR3-rescue:R R16
U 1 1 5DCA2E17
P 3950 6300
F 0 "R16" V 4030 6300 50  0000 C CNN
F 1 "47k" V 3950 6300 50  0000 C CNN
F 2 "Resistor_SMD:R_1206_3216Metric_Pad1.42x1.75mm_HandSolder" V 3880 6300 50  0001 C CNN
F 3 "" H 3950 6300 50  0000 C CNN
	1    3950 6300
	1    0    0    -1  
$EndComp
$Comp
L KomaFieldKit-PR3-rescue:TLV274 U3
U 2 1 5DCA2DEF
P 2750 5300
F 0 "U3" H 2800 5500 60  0000 C CNN
F 1 "TL074" H 2900 5100 50  0000 C CNN
F 2 "Package_SO:SOIC-14_3.9x8.7mm_P1.27mm" H 2750 5300 60  0001 C CNN
F 3 "" H 2750 5300 60  0000 C CNN
	2    2750 5300
	1    0    0    -1  
$EndComp
$Comp
L KomaFieldKit-PR3-rescue:R R13
U 1 1 5DCA2DF9
P 2650 5850
F 0 "R13" V 2730 5850 50  0000 C CNN
F 1 "1k" V 2650 5850 50  0000 C CNN
F 2 "Resistor_SMD:R_1206_3216Metric_Pad1.42x1.75mm_HandSolder" V 2580 5850 50  0001 C CNN
F 3 "" H 2650 5850 50  0000 C CNN
	1    2650 5850
	0    1    1    0   
$EndComp
$Comp
L KomaFieldKit-PR3-rescue:R R15
U 1 1 5DCA2E03
P 2250 6000
F 0 "R15" V 2330 6000 50  0000 C CNN
F 1 "100k" V 2250 6000 50  0000 C CNN
F 2 "Resistor_SMD:R_1206_3216Metric_Pad1.42x1.75mm_HandSolder" V 2180 6000 50  0001 C CNN
F 3 "" H 2250 6000 50  0000 C CNN
	1    2250 6000
	1    0    0    -1  
$EndComp
Text Notes 1300 5050 0    79   ~ 0
Input 0V - 2,6V
$Comp
L KomaFieldKit-PR3-rescue:R R23
U 1 1 5E4EEFBA
P 1950 5500
F 0 "R23" V 2030 5500 50  0000 C CNN
F 1 "1M" V 1950 5500 50  0000 C CNN
F 2 "Resistor_SMD:R_1206_3216Metric_Pad1.42x1.75mm_HandSolder" V 1880 5500 50  0001 C CNN
F 3 "" H 1950 5500 50  0000 C CNN
	1    1950 5500
	-1   0    0    1   
$EndComp
$Comp
L KomaFieldKit-PR3-rescue:AGND #PWR0120
U 1 1 5E4EEFC5
P 1950 5750
F 0 "#PWR0120" H 1950 5750 40  0001 C CNN
F 1 "AGND" H 1950 5680 50  0000 C CNN
F 2 "" H 1950 5750 60  0000 C CNN
F 3 "" H 1950 5750 60  0000 C CNN
	1    1950 5750
	1    0    0    -1  
$EndComp
Wire Wire Line
	1950 5750 1950 5650
Wire Wire Line
	1950 5200 1950 5350
Wire Wire Line
	1950 5200 2250 5200
Wire Wire Line
	3950 6450 3950 6595
Connection ~ 3950 6595
Wire Wire Line
	3950 6595 3950 6875
Wire Wire Line
	3750 5300 3950 5300
Wire Wire Line
	3950 5300 3950 5200
Connection ~ 3950 5300
Wire Wire Line
	3950 5300 4050 5300
Text Notes 6450 6000 2    79   ~ 0
Inverted CV
Connection ~ 6600 6700
Wire Wire Line
	6800 6700 6600 6700
Text GLabel 6800 6700 2    39   Output ~ 8
CV-B_inverted
Wire Wire Line
	5550 6800 5600 6800
Wire Wire Line
	5200 6600 5050 6600
Wire Wire Line
	6600 6150 6600 6700
Wire Wire Line
	6250 6150 6600 6150
Wire Wire Line
	5550 6600 5600 6600
Connection ~ 5550 6600
Wire Wire Line
	5550 6150 5950 6150
Wire Wire Line
	5550 6600 5550 6150
$Comp
L KomaFieldKit-PR3-rescue:R R25
U 1 1 60ABFA0A
P 6100 6150
F 0 "R25" V 6180 6150 50  0000 C CNN
F 1 "100k" V 6100 6150 50  0000 C CNN
F 2 "Resistor_SMD:R_1206_3216Metric_Pad1.42x1.75mm_HandSolder" V 6030 6150 50  0001 C CNN
F 3 "" H 6100 6150 50  0000 C CNN
	1    6100 6150
	0    1    1    0   
$EndComp
Wire Wire Line
	5500 6600 5550 6600
$Comp
L KomaFieldKit-PR3-rescue:R R24
U 1 1 60ABFA15
P 5350 6600
F 0 "R24" V 5430 6600 50  0000 C CNN
F 1 "100k" V 5350 6600 50  0000 C CNN
F 2 "Resistor_SMD:R_1206_3216Metric_Pad1.42x1.75mm_HandSolder" V 5280 6600 50  0001 C CNN
F 3 "" H 5350 6600 50  0000 C CNN
	1    5350 6600
	0    1    1    0   
$EndComp
$Comp
L KomaFieldKit-PR3-rescue:VV #PWR0153
U 1 1 60ABFA1F
P 5550 6800
F 0 "#PWR0153" H 5550 6900 30  0001 C CNN
F 1 "VV" H 5550 6900 30  0000 C CNN
F 2 "" H 5550 6800 60  0000 C CNN
F 3 "" H 5550 6800 60  0000 C CNN
	1    5550 6800
	1    0    0    -1  
$EndComp
$Comp
L KomaFieldKit-PR3-rescue:TLV274 U3
U 1 1 60ABFA29
P 6100 6700
F 0 "U3" H 6150 6900 60  0000 C CNN
F 1 "TL074" H 6250 6500 50  0000 C CNN
F 2 "Package_SO:SOIC-14_3.9x8.7mm_P1.27mm" H 6100 6700 60  0001 C CNN
F 3 "" H 6100 6700 60  0000 C CNN
	1    6100 6700
	1    0    0    1   
$EndComp
Wire Wire Line
	6850 5400 6950 5400
$Comp
L Switch:SW_SPDT SW2
U 1 1 60B06560
P 6650 5400
F 0 "SW2" H 6650 5075 50  0000 C CNN
F 1 "SW_INV_B" H 6650 5166 50  0000 C CNN
F 2 "koma:Switch_SPDT" H 6650 5400 50  0001 C CNN
F 3 "~" H 6650 5400 50  0001 C CNN
	1    6650 5400
	-1   0    0    1   
$EndComp
Wire Wire Line
	6350 5300 6450 5300
Text GLabel 6350 5500 0    39   Input ~ 8
CV-B_inverted
Wire Wire Line
	6350 5500 6450 5500
Wire Wire Line
	1550 5200 1950 5200
Connection ~ 1950 5200
Wire Wire Line
	2500 5850 2250 5850
Connection ~ 2250 5850
Wire Wire Line
	2250 6250 2250 6150
$Comp
L KomaFieldKit-PR3-rescue:POT RV-Gain2
U 1 1 5DBABCA6
P 3100 5850
F 0 "RV-Gain2" H 3095 5750 50  0000 C CNN
F 1 "100k" H 3100 5850 50  0000 C CNN
F 2 "KOMA:KOMA_RK0903N" H 3100 5850 50  0001 C CNN
F 3 "" H 3100 5850 50  0000 C CNN
	1    3100 5850
	1    0    0    -1  
$EndComp
Wire Wire Line
	2250 5400 2250 5850
Wire Wire Line
	2800 5850 2950 5850
Wire Wire Line
	3100 5700 3250 5700
Wire Wire Line
	3250 5700 3250 5850
Wire Wire Line
	3250 5300 3450 5300
Wire Wire Line
	3250 5700 3250 5300
Connection ~ 3250 5700
Connection ~ 3250 5300
Wire Wire Line
	5050 5400 5050 5800
Wire Wire Line
	3950 5500 3950 5800
Wire Wire Line
	5050 5800 4650 5800
Wire Wire Line
	4350 5800 3950 5800
Connection ~ 3950 5800
Wire Wire Line
	3950 5800 3950 6150
Wire Wire Line
	5050 3000 5050 2300
Connection ~ 5050 2300
Wire Wire Line
	5050 5800 5050 6600
Connection ~ 5050 5800
Text GLabel 1500 1650 0    39   Input ~ 8
Electrode-A
Text GLabel 1550 5200 0    39   Input ~ 8
Electrode-B
$Comp
L chrisi:SW_3P3T SW3
U 2 1 60C8BF1C
P 12050 1850
F 0 "SW3" H 12050 1525 50  0000 C CNN
F 1 "SW_3P3T" H 12050 1616 50  0000 C CNN
F 2 "koma:Switch_3P3T" H 12050 1850 50  0001 C CNN
F 3 "~" H 12050 1850 50  0001 C CNN
	2    12050 1850
	-1   0    0    -1  
$EndComp
Wire Wire Line
	12250 1850 12350 1850
Wire Wire Line
	11850 1750 10800 1750
Wire Wire Line
	10800 1750 10800 1850
Wire Wire Line
	9950 1850 10800 1850
Wire Wire Line
	8500 1950 8500 2650
Wire Wire Line
	8500 2650 10850 2650
Wire Wire Line
	10850 2650 10850 1950
Wire Wire Line
	10850 1950 11850 1950
$Comp
L chrisi:SW_3P3T SW4
U 1 1 60C9D68F
P 7150 5400
F 0 "SW4" H 7150 5685 50  0000 C CNN
F 1 "SW_3P3T" H 7150 5594 50  0000 C CNN
F 2 "koma:Switch_3P3T" H 7150 5400 50  0001 C CNN
F 3 "~" H 7150 5400 50  0001 C CNN
	1    7150 5400
	1    0    0    -1  
$EndComp
$Comp
L chrisi:SW_3P3T SW4
U 2 1 60CA0729
P 12050 5400
F 0 "SW4" H 12050 5075 50  0000 C CNN
F 1 "SW_3P3T" H 12050 5166 50  0000 C CNN
F 2 "koma:Switch_3P3T" H 12050 5400 50  0001 C CNN
F 3 "~" H 12050 5400 50  0001 C CNN
	2    12050 5400
	-1   0    0    -1  
$EndComp
Wire Wire Line
	12250 5400 12350 5400
Wire Wire Line
	11850 5300 10800 5300
Wire Wire Line
	10800 5300 10800 5400
Wire Wire Line
	9950 5400 10800 5400
Wire Wire Line
	7350 5300 8500 5300
Wire Wire Line
	8500 5300 8500 5400
$Comp
L SynLimb-Proto2-rescue:ISO124U-chrisi_lib U?
U 1 1 605DCD1B
P 9250 1750
AR Path="/605DCD1B" Ref="U?"  Part="1" 
AR Path="/5DAA23CB/605DCD1B" Ref="U5"  Part="1" 
F 0 "U5" H 9250 2420 50  0000 C CNN
F 1 "ISO124U" H 9250 2329 50  0000 C CNN
F 2 "SOIC127P1033X265-8N" H 9250 1750 50  0001 L BNN
F 3 "" H 9250 1750 50  0001 L BNN
	1    9250 1750
	1    0    0    -1  
$EndComp
Wire Wire Line
	8550 1750 8550 1850
Wire Wire Line
	8500 5400 8550 5400
Wire Wire Line
	7350 5500 8500 5500
Wire Wire Line
	8500 5500 8500 6250
Wire Wire Line
	8500 6250 10850 6250
Wire Wire Line
	10850 6250 10850 5500
Wire Wire Line
	10850 5500 11850 5500
Wire Wire Line
	7350 1750 8550 1750
Wire Wire Line
	7350 1950 8500 1950
$Comp
L chrisi:SW_3P3T SW3
U 1 1 60C5DEA7
P 7150 1850
F 0 "SW3" H 7150 2135 50  0000 C CNN
F 1 "SW_3P3T" H 7150 2044 50  0000 C CNN
F 2 "koma:Switch_3P3T" H 7150 1850 50  0001 C CNN
F 3 "~" H 7150 1850 50  0001 C CNN
	1    7150 1850
	1    0    0    -1  
$EndComp
Wire Wire Line
	6350 1950 6450 1950
Text GLabel 6350 1950 0    39   Input ~ 8
CV-A_inverted
Wire Wire Line
	6350 1750 6450 1750
$Comp
L Switch:SW_SPDT SW1
U 1 1 60AD548C
P 6650 1850
F 0 "SW1" H 6650 1525 50  0000 C CNN
F 1 "SW_INV_A" H 6650 1616 50  0000 C CNN
F 2 "koma:Switch_SPDT" H 6650 1850 50  0001 C CNN
F 3 "~" H 6650 1850 50  0001 C CNN
	1    6650 1850
	-1   0    0    1   
$EndComp
Wire Wire Line
	6850 1850 6950 1850
Text GLabel 6350 1750 0    39   Input ~ 8
CV-A
$Comp
L chrisi:SW_3P3T SW3
U 3 1 61EE63C3
P 10575 3330
F 0 "SW3" H 10575 3615 50  0000 C CNN
F 1 "SW_3P3T" H 10575 3524 50  0000 C CNN
F 2 "koma:Switch_3P3T" H 10575 3330 50  0001 C CNN
F 3 "~" H 10575 3330 50  0001 C CNN
	3    10575 3330
	1    0    0    -1  
$EndComp
$Comp
L chrisi:SW_3P3T SW4
U 3 1 61EE6F6C
P 10005 6845
F 0 "SW4" H 10005 7130 50  0000 C CNN
F 1 "SW_3P3T" H 10005 7039 50  0000 C CNN
F 2 "koma:Switch_3P3T" H 10005 6845 50  0001 C CNN
F 3 "~" H 10005 6845 50  0001 C CNN
	3    10005 6845
	1    0    0    -1  
$EndComp
$EndSCHEMATC
