EESchema Schematic File Version 4
EELAYER 30 0
EELAYER END
$Descr A4 11693 8268
encoding utf-8
Sheet 4 5
Title "Bertolt Meyer SynLimb LED Bar Graphs"
Date "2020-06-21"
Rev "Proto2"
Comp "Christian Zollner"
Comment1 ""
Comment2 ""
Comment3 ""
Comment4 ""
$EndDescr
$Comp
L chrisi:LM3914N IC2
U 1 1 5F07CDF4
P 8250 4350
AR Path="/5F07CDF4" Ref="IC2"  Part="1" 
AR Path="/5ECD61F5/5F07CDF4" Ref="IC2"  Part="1" 
F 0 "IC2" H 8250 5220 50  0000 C CNN
F 1 "LM3914N" H 8250 5129 50  0000 C CNN
F 2 "Package_DIP:DIP-18_W7.62mm_LongPads" H 8250 4350 50  0001 L BNN
F 3 "" H 8250 4350 39  0001 C CNN
	1    8250 4350
	1    0    0    -1  
$EndComp
Wire Wire Line
	7400 4650 7400 4550
Wire Wire Line
	7750 3650 7750 3750
Wire Wire Line
	7750 3750 7850 3750
Wire Wire Line
	8750 4950 8650 4950
$Comp
L Device:LED_ALT D8
U 1 1 5F0811C2
P 9950 2850
F 0 "D8" H 9950 2750 50  0000 C CNN
F 1 "LED_ALT" H 9950 2950 50  0000 C CNN
F 2 "LED_THT:LED_Rectangular_W5.0mm_H2.0mm" H 9950 2850 50  0001 C CNN
F 3 "~" H 9950 2850 50  0001 C CNN
	1    9950 2850
	1    0    0    -1  
$EndComp
$Comp
L Device:LED_ALT D6
U 1 1 5F081B8E
P 9950 2450
F 0 "D6" H 9950 2350 50  0000 C CNN
F 1 "LED_ALT" H 9950 2550 50  0000 C CNN
F 2 "LED_THT:LED_Rectangular_W5.0mm_H2.0mm" H 9950 2450 50  0001 C CNN
F 3 "~" H 9950 2450 50  0001 C CNN
	1    9950 2450
	1    0    0    -1  
$EndComp
$Comp
L Device:LED_ALT D12
U 1 1 5F084DEA
P 9950 3650
F 0 "D12" H 9950 3550 50  0000 C CNN
F 1 "LED_ALT" H 9950 3750 50  0000 C CNN
F 2 "LED_THT:LED_Rectangular_W5.0mm_H2.0mm" H 9950 3650 50  0001 C CNN
F 3 "~" H 9950 3650 50  0001 C CNN
	1    9950 3650
	1    0    0    -1  
$EndComp
$Comp
L Device:LED_ALT D10
U 1 1 5F084DF4
P 9950 3250
F 0 "D10" H 9950 3150 50  0000 C CNN
F 1 "LED_ALT" H 9950 3350 50  0000 C CNN
F 2 "LED_THT:LED_Rectangular_W5.0mm_H2.0mm" H 9950 3250 50  0001 C CNN
F 3 "~" H 9950 3250 50  0001 C CNN
	1    9950 3250
	1    0    0    -1  
$EndComp
$Comp
L Device:LED_ALT D16
U 1 1 5F085DBB
P 9950 4450
F 0 "D16" H 9950 4350 50  0000 C CNN
F 1 "LED_ALT" H 9950 4550 50  0000 C CNN
F 2 "LED_THT:LED_Rectangular_W5.0mm_H2.0mm" H 9950 4450 50  0001 C CNN
F 3 "~" H 9950 4450 50  0001 C CNN
	1    9950 4450
	1    0    0    -1  
$EndComp
$Comp
L Device:LED_ALT D14
U 1 1 5F085DC5
P 9950 4050
F 0 "D14" H 9950 3950 50  0000 C CNN
F 1 "LED_ALT" H 9950 4150 50  0000 C CNN
F 2 "LED_THT:LED_Rectangular_W5.0mm_H2.0mm" H 9950 4050 50  0001 C CNN
F 3 "~" H 9950 4050 50  0001 C CNN
	1    9950 4050
	1    0    0    -1  
$EndComp
$Comp
L Device:LED_ALT D20
U 1 1 5F085DCF
P 9950 5250
F 0 "D20" H 9950 5150 50  0000 C CNN
F 1 "LED_ALT" H 9950 5350 50  0000 C CNN
F 2 "LED_THT:LED_Rectangular_W5.0mm_H2.0mm" H 9950 5250 50  0001 C CNN
F 3 "~" H 9950 5250 50  0001 C CNN
	1    9950 5250
	1    0    0    -1  
$EndComp
$Comp
L Device:LED_ALT D18
U 1 1 5F085DD9
P 9950 4850
F 0 "D18" H 9950 4750 50  0000 C CNN
F 1 "LED_ALT" H 9950 4950 50  0000 C CNN
F 2 "LED_THT:LED_Rectangular_W5.0mm_H2.0mm" H 9950 4850 50  0001 C CNN
F 3 "~" H 9950 4850 50  0001 C CNN
	1    9950 4850
	1    0    0    -1  
$EndComp
$Comp
L Device:LED_ALT D24
U 1 1 5F087DD4
P 9950 6050
F 0 "D24" H 9950 5950 50  0000 C CNN
F 1 "LED_ALT" H 9950 6150 50  0000 C CNN
F 2 "LED_THT:LED_Rectangular_W5.0mm_H2.0mm" H 9950 6050 50  0001 C CNN
F 3 "~" H 9950 6050 50  0001 C CNN
	1    9950 6050
	1    0    0    -1  
$EndComp
$Comp
L Device:LED_ALT D22
U 1 1 5F087DDE
P 9950 5650
F 0 "D22" H 9950 5550 50  0000 C CNN
F 1 "LED_ALT" H 9950 5750 50  0000 C CNN
F 2 "LED_THT:LED_Rectangular_W5.0mm_H2.0mm" H 9950 5650 50  0001 C CNN
F 3 "~" H 9950 5650 50  0001 C CNN
	1    9950 5650
	1    0    0    -1  
$EndComp
Wire Wire Line
	10100 6050 10100 5650
Connection ~ 10100 2850
Wire Wire Line
	10100 2850 10100 2450
Connection ~ 10100 3250
Wire Wire Line
	10100 3250 10100 2850
Connection ~ 10100 3650
Wire Wire Line
	10100 3650 10100 3250
Connection ~ 10100 4050
Wire Wire Line
	10100 4050 10100 3650
Connection ~ 10100 4450
Connection ~ 10100 4850
Wire Wire Line
	10100 4850 10100 4450
Connection ~ 10100 5250
Wire Wire Line
	10100 5250 10100 4850
Connection ~ 10100 5650
Wire Wire Line
	10100 5650 10100 5250
Wire Wire Line
	10100 4050 10100 4450
Wire Wire Line
	8650 4750 8850 4750
Wire Wire Line
	8850 4750 8850 6050
Wire Wire Line
	8850 6050 9800 6050
Wire Wire Line
	8650 4650 9000 4650
Wire Wire Line
	9000 4650 9000 5650
Wire Wire Line
	9000 5650 9800 5650
Wire Wire Line
	8650 4550 9150 4550
Wire Wire Line
	9150 4550 9150 5250
Wire Wire Line
	9150 5250 9800 5250
Wire Wire Line
	8650 4450 9300 4450
Wire Wire Line
	9300 4450 9300 4850
Wire Wire Line
	9300 4850 9800 4850
Wire Wire Line
	8650 4350 9450 4350
Wire Wire Line
	9450 4350 9450 4450
Wire Wire Line
	9450 4450 9800 4450
Wire Wire Line
	8650 3750 8850 3750
Wire Wire Line
	8850 3750 8850 2450
Wire Wire Line
	8850 2450 9800 2450
Wire Wire Line
	8650 3850 9000 3850
Wire Wire Line
	9000 3850 9000 2850
Wire Wire Line
	9000 2850 9800 2850
Wire Wire Line
	8650 3950 9150 3950
Wire Wire Line
	9150 3950 9150 3250
Wire Wire Line
	9150 3250 9800 3250
Wire Wire Line
	8650 4050 9300 4050
Wire Wire Line
	9300 4050 9300 3650
Wire Wire Line
	9300 3650 9800 3650
Wire Wire Line
	8650 4150 9450 4150
Wire Wire Line
	9450 4150 9450 4050
Wire Wire Line
	9450 4050 9800 4050
Wire Wire Line
	10100 2200 10100 2450
Connection ~ 10100 2450
Wire Wire Line
	7750 5050 7750 4950
Wire Wire Line
	7750 4950 7850 4950
$Comp
L Device:R_POT_TRIM RV2
U 1 1 5F09A651
P 7400 4350
F 0 "RV2" H 7330 4396 50  0000 R CNN
F 1 "Trimmer" H 7330 4305 50  0000 R CNN
F 2 "Potentiometer_THT:Potentiometer_Piher_PT-10-V10_Vertical" H 7400 4350 50  0001 C CNN
F 3 "~" H 7400 4350 50  0001 C CNN
	1    7400 4350
	1    0    0    -1  
$EndComp
Wire Wire Line
	7550 4350 7850 4350
Wire Wire Line
	7400 4500 7400 4550
Wire Wire Line
	7400 4150 7400 4200
Wire Wire Line
	7400 3950 7400 4150
Wire Wire Line
	7400 3950 7850 3950
Connection ~ 7400 4150
Wire Wire Line
	7400 4150 7850 4150
Connection ~ 7400 4550
Wire Wire Line
	7400 4550 7850 4550
Wire Wire Line
	7400 4750 7850 4750
Text Notes 6350 4400 0    39   ~ 0
make sure trimmer\nfootprint is available
Text Notes 3950 1150 0    197  ~ 39
LED Bar Graphs for CV
$Comp
L chrisi:LM3914N IC1
U 1 1 5F0AA4C7
P 3300 4350
AR Path="/5F0AA4C7" Ref="IC1"  Part="1" 
AR Path="/5ECD61F5/5F0AA4C7" Ref="IC1"  Part="1" 
F 0 "IC1" H 3300 5220 50  0000 C CNN
F 1 "LM3914N" H 3300 5129 50  0000 C CNN
F 2 "Package_DIP:DIP-18_W7.62mm_LongPads" H 3300 4350 50  0001 L BNN
F 3 "" H 3300 4350 39  0001 C CNN
	1    3300 4350
	1    0    0    -1  
$EndComp
Text GLabel 2300 4750 0    39   Input ~ 0
CV-A-LED-Sig
Wire Wire Line
	2450 4650 2450 4550
Wire Wire Line
	2800 3650 2800 3750
Wire Wire Line
	2800 3750 2900 3750
Wire Wire Line
	3800 4950 3700 4950
$Comp
L Device:LED_ALT D7
U 1 1 5F0AA4F4
P 5000 2850
F 0 "D7" H 5000 2750 50  0000 C CNN
F 1 "LED_ALT" H 5000 2950 50  0000 C CNN
F 2 "LED_THT:LED_Rectangular_W5.0mm_H2.0mm" H 5000 2850 50  0001 C CNN
F 3 "~" H 5000 2850 50  0001 C CNN
	1    5000 2850
	1    0    0    -1  
$EndComp
$Comp
L Device:LED_ALT D5
U 1 1 5F0AA4FE
P 5000 2450
F 0 "D5" H 5000 2350 50  0000 C CNN
F 1 "LED_ALT" H 5000 2550 50  0000 C CNN
F 2 "LED_THT:LED_Rectangular_W5.0mm_H2.0mm" H 5000 2450 50  0001 C CNN
F 3 "~" H 5000 2450 50  0001 C CNN
	1    5000 2450
	1    0    0    -1  
$EndComp
$Comp
L Device:LED_ALT D11
U 1 1 5F0AA508
P 5000 3650
F 0 "D11" H 5000 3550 50  0000 C CNN
F 1 "LED_ALT" H 5000 3750 50  0000 C CNN
F 2 "LED_THT:LED_Rectangular_W5.0mm_H2.0mm" H 5000 3650 50  0001 C CNN
F 3 "~" H 5000 3650 50  0001 C CNN
	1    5000 3650
	1    0    0    -1  
$EndComp
$Comp
L Device:LED_ALT D9
U 1 1 5F0AA512
P 5000 3250
F 0 "D9" H 5000 3150 50  0000 C CNN
F 1 "LED_ALT" H 5000 3350 50  0000 C CNN
F 2 "LED_THT:LED_Rectangular_W5.0mm_H2.0mm" H 5000 3250 50  0001 C CNN
F 3 "~" H 5000 3250 50  0001 C CNN
	1    5000 3250
	1    0    0    -1  
$EndComp
$Comp
L Device:LED_ALT D15
U 1 1 5F0AA51C
P 5000 4450
F 0 "D15" H 5000 4350 50  0000 C CNN
F 1 "LED_ALT" H 5000 4550 50  0000 C CNN
F 2 "LED_THT:LED_Rectangular_W5.0mm_H2.0mm" H 5000 4450 50  0001 C CNN
F 3 "~" H 5000 4450 50  0001 C CNN
	1    5000 4450
	1    0    0    -1  
$EndComp
$Comp
L Device:LED_ALT D13
U 1 1 5F0AA526
P 5000 4050
F 0 "D13" H 5000 3950 50  0000 C CNN
F 1 "LED_ALT" H 5000 4150 50  0000 C CNN
F 2 "LED_THT:LED_Rectangular_W5.0mm_H2.0mm" H 5000 4050 50  0001 C CNN
F 3 "~" H 5000 4050 50  0001 C CNN
	1    5000 4050
	1    0    0    -1  
$EndComp
$Comp
L Device:LED_ALT D19
U 1 1 5F0AA530
P 5000 5250
F 0 "D19" H 5000 5150 50  0000 C CNN
F 1 "LED_ALT" H 5000 5350 50  0000 C CNN
F 2 "LED_THT:LED_Rectangular_W5.0mm_H2.0mm" H 5000 5250 50  0001 C CNN
F 3 "~" H 5000 5250 50  0001 C CNN
	1    5000 5250
	1    0    0    -1  
$EndComp
$Comp
L Device:LED_ALT D17
U 1 1 5F0AA53A
P 5000 4850
F 0 "D17" H 5000 4750 50  0000 C CNN
F 1 "LED_ALT" H 5000 4950 50  0000 C CNN
F 2 "LED_THT:LED_Rectangular_W5.0mm_H2.0mm" H 5000 4850 50  0001 C CNN
F 3 "~" H 5000 4850 50  0001 C CNN
	1    5000 4850
	1    0    0    -1  
$EndComp
$Comp
L Device:LED_ALT D23
U 1 1 5F0AA544
P 5000 6050
F 0 "D23" H 5000 5950 50  0000 C CNN
F 1 "LED_ALT" H 5000 6150 50  0000 C CNN
F 2 "LED_THT:LED_Rectangular_W5.0mm_H2.0mm" H 5000 6050 50  0001 C CNN
F 3 "~" H 5000 6050 50  0001 C CNN
	1    5000 6050
	1    0    0    -1  
$EndComp
$Comp
L Device:LED_ALT D21
U 1 1 5F0AA54E
P 5000 5650
F 0 "D21" H 5000 5550 50  0000 C CNN
F 1 "LED_ALT" H 5000 5750 50  0000 C CNN
F 2 "LED_THT:LED_Rectangular_W5.0mm_H2.0mm" H 5000 5650 50  0001 C CNN
F 3 "~" H 5000 5650 50  0001 C CNN
	1    5000 5650
	1    0    0    -1  
$EndComp
Wire Wire Line
	5150 6050 5150 5650
Connection ~ 5150 2850
Wire Wire Line
	5150 2850 5150 2450
Connection ~ 5150 3250
Wire Wire Line
	5150 3250 5150 2850
Connection ~ 5150 3650
Wire Wire Line
	5150 3650 5150 3250
Connection ~ 5150 4050
Wire Wire Line
	5150 4050 5150 3650
Connection ~ 5150 4450
Connection ~ 5150 4850
Wire Wire Line
	5150 4850 5150 4450
Connection ~ 5150 5250
Wire Wire Line
	5150 5250 5150 4850
Connection ~ 5150 5650
Wire Wire Line
	5150 5650 5150 5250
Wire Wire Line
	5150 4050 5150 4450
Wire Wire Line
	3700 4750 3900 4750
Wire Wire Line
	3900 4750 3900 6050
Wire Wire Line
	3900 6050 4850 6050
Wire Wire Line
	3700 4650 4050 4650
Wire Wire Line
	4050 4650 4050 5650
Wire Wire Line
	4050 5650 4850 5650
Wire Wire Line
	3700 4550 4200 4550
Wire Wire Line
	4200 4550 4200 5250
Wire Wire Line
	4200 5250 4850 5250
Wire Wire Line
	3700 4450 4350 4450
Wire Wire Line
	4350 4450 4350 4850
Wire Wire Line
	4350 4850 4850 4850
Wire Wire Line
	3700 4350 4500 4350
Wire Wire Line
	4500 4350 4500 4450
Wire Wire Line
	4500 4450 4850 4450
Wire Wire Line
	3700 3750 3900 3750
Wire Wire Line
	3900 3750 3900 2450
Wire Wire Line
	3900 2450 4850 2450
Wire Wire Line
	3700 3850 4050 3850
Wire Wire Line
	4050 3850 4050 2850
Wire Wire Line
	4050 2850 4850 2850
Wire Wire Line
	3700 3950 4200 3950
Wire Wire Line
	4200 3950 4200 3250
Wire Wire Line
	4200 3250 4850 3250
Wire Wire Line
	3700 4050 4350 4050
Wire Wire Line
	4350 4050 4350 3650
Wire Wire Line
	4350 3650 4850 3650
Wire Wire Line
	3700 4150 4500 4150
Wire Wire Line
	4500 4150 4500 4050
Wire Wire Line
	4500 4050 4850 4050
Wire Wire Line
	5150 2200 5150 2450
Connection ~ 5150 2450
Wire Wire Line
	2800 5050 2800 4950
Wire Wire Line
	2800 4950 2900 4950
$Comp
L Device:R_POT_TRIM RV1
U 1 1 5F0AA59F
P 2450 4350
F 0 "RV1" H 2380 4396 50  0000 R CNN
F 1 "Trimmer" H 2380 4305 50  0000 R CNN
F 2 "Potentiometer_THT:Potentiometer_Piher_PT-10-V10_Vertical" H 2450 4350 50  0001 C CNN
F 3 "~" H 2450 4350 50  0001 C CNN
	1    2450 4350
	1    0    0    -1  
$EndComp
Wire Wire Line
	2600 4350 2900 4350
Wire Wire Line
	2450 4500 2450 4550
Wire Wire Line
	2450 4150 2450 4200
Wire Wire Line
	2450 3950 2450 4150
Wire Wire Line
	2450 3950 2900 3950
Connection ~ 2450 4150
Wire Wire Line
	2450 4150 2900 4150
Connection ~ 2450 4550
Wire Wire Line
	2450 4550 2900 4550
Wire Wire Line
	2300 4750 2900 4750
Text Notes 1400 4400 0    39   ~ 0
make sure trimmer\nfootprint is available
Text Notes 2550 2250 0    197  ~ 39
Channel A
Text Notes 7550 2250 0    197  ~ 39
Channel B
Text GLabel 7400 4750 0    39   Input ~ 0
CV-B-LED-Sig
Text GLabel 3800 4950 3    39   Input ~ 0
VCC-LEDs-A
Text GLabel 2450 4650 0    39   Input ~ 0
GND-LEDs-A
Text GLabel 8750 4950 3    39   Input ~ 0
VCC-LEDs-B
Text GLabel 7400 4650 0    39   Input ~ 0
GND-LEDs-B
Text GLabel 2800 5050 0    39   Input ~ 0
GND-LEDs-A
Text GLabel 2800 3650 0    39   Input ~ 0
VCC-LEDs-A
Text GLabel 5150 2200 0    39   Input ~ 0
VCC-LEDs-A
Text GLabel 7750 5050 0    39   Input ~ 0
GND-LEDs-B
Text GLabel 7750 3650 0    39   Input ~ 0
VCC-LEDs-B
Text GLabel 10100 2200 0    39   Input ~ 0
VCC-LEDs-B
$EndSCHEMATC
