EESchema Schematic File Version 4
EELAYER 30 0
EELAYER END
$Descr A4 11693 8268
encoding utf-8
Sheet 2 5
Title "Bertolt Meyer SynLimb Power & Mechanics"
Date "2020-06-21"
Rev "Proto2"
Comp "Christian Zollner"
Comment1 ""
Comment2 ""
Comment3 ""
Comment4 ""
$EndDescr
$Comp
L KomaFieldKit-PR3-rescue:C C2
U 1 1 56CCA68D
P 4700 3200
F 0 "C2" H 4750 3300 50  0000 L CNN
F 1 "100nF" H 4750 3100 50  0000 L CNN
F 2 "Capacitor_SMD:C_1206_3216Metric_Pad1.42x1.75mm_HandSolder" H 4700 3200 60  0001 C CNN
F 3 "" H 4700 3200 60  0000 C CNN
	1    4700 3200
	1    0    0    -1  
$EndComp
$Comp
L KomaFieldKit-PR3-rescue:VCC #PWR01
U 1 1 56CCA6B2
P 5275 2600
F 0 "#PWR01" H 5275 2700 30  0001 C CNN
F 1 "VCC" H 5275 2725 30  0000 C CNN
F 2 "" H 5275 2600 60  0000 C CNN
F 3 "" H 5275 2600 60  0000 C CNN
	1    5275 2600
	1    0    0    -1  
$EndComp
$Comp
L KomaFieldKit-PR3-rescue:R R1
U 1 1 56CCA6B8
P 5275 2900
F 0 "R1" V 5355 2900 50  0000 C CNN
F 1 "100k" V 5275 2900 50  0000 C CNN
F 2 "Resistor_SMD:R_1206_3216Metric_Pad1.42x1.75mm_HandSolder" H 5275 2900 60  0001 C CNN
F 3 "" H 5275 2900 60  0000 C CNN
	1    5275 2900
	1    0    0    -1  
$EndComp
$Comp
L KomaFieldKit-PR3-rescue:R R2
U 1 1 56CCA6BF
P 5275 3450
F 0 "R2" V 5355 3450 50  0000 C CNN
F 1 "100k" V 5275 3450 50  0000 C CNN
F 2 "Resistor_SMD:R_1206_3216Metric_Pad1.42x1.75mm_HandSolder" H 5275 3450 60  0001 C CNN
F 3 "" H 5275 3450 60  0000 C CNN
	1    5275 3450
	-1   0    0    -1  
$EndComp
$Comp
L KomaFieldKit-PR3-rescue:C C4
U 1 1 56CCA6CD
P 7875 3050
F 0 "C4" H 7925 3150 50  0000 L CNN
F 1 "100nF" H 7925 2950 50  0000 L CNN
F 2 "Capacitor_SMD:C_1206_3216Metric_Pad1.42x1.75mm_HandSolder" H 7875 3050 60  0001 C CNN
F 3 "" H 7875 3050 60  0000 C CNN
	1    7875 3050
	1    0    0    -1  
$EndComp
$Comp
L KomaFieldKit-PR3-rescue:TL072 U1
U 1 1 56CCA786
P 6575 3100
F 0 "U1" H 6525 3300 60  0000 L CNN
F 1 "TL072" H 6525 2850 60  0000 L CNN
F 2 "Package_SO:SOIC-8_3.9x4.9mm_P1.27mm" H 6575 3100 60  0001 C CNN
F 3 "" H 6575 3100 60  0000 C CNN
	1    6575 3100
	1    0    0    1   
$EndComp
$Comp
L KomaFieldKit-PR3-rescue:AGND #PWR?
U 1 1 56CCA7C3
P 7425 3250
AR Path="/56CCA7C3" Ref="#PWR?"  Part="1" 
AR Path="/56CC38FC/56CCA7C3" Ref="#PWR?"  Part="1" 
AR Path="/5DAA151B/56CCA7C3" Ref="#PWR05"  Part="1" 
F 0 "#PWR05" H 7425 3250 40  0001 C CNN
F 1 "AGND" H 7425 3180 50  0000 C CNN
F 2 "" H 7425 3250 60  0000 C CNN
F 3 "" H 7425 3250 60  0000 C CNN
	1    7425 3250
	1    0    0    -1  
$EndComp
$Comp
L KomaFieldKit-PR3-rescue:VCC #PWR09
U 1 1 56D43069
P 2450 4275
F 0 "#PWR09" H 2450 4375 30  0001 C CNN
F 1 "VCC" H 2450 4375 30  0000 C CNN
F 2 "" H 2450 4275 60  0000 C CNN
F 3 "" H 2450 4275 60  0000 C CNN
	1    2450 4275
	1    0    0    -1  
$EndComp
$Comp
L KomaFieldKit-PR3-rescue:AGND #PWR?
U 1 1 56D436C3
P 2450 5275
AR Path="/56D436C3" Ref="#PWR?"  Part="1" 
AR Path="/56CC38FC/56D436C3" Ref="#PWR?"  Part="1" 
AR Path="/5DAA151B/56D436C3" Ref="#PWR010"  Part="1" 
F 0 "#PWR010" H 2450 5275 40  0001 C CNN
F 1 "AGND" H 2450 5205 50  0000 C CNN
F 2 "" H 2450 5275 60  0000 C CNN
F 3 "" H 2450 5275 60  0000 C CNN
	1    2450 5275
	1    0    0    -1  
$EndComp
$Comp
L KomaFieldKit-PR3-rescue:C C6
U 1 1 56D8319C
P 6025 3450
F 0 "C6" H 6075 3550 50  0000 L CNN
F 1 "100nF" H 6075 3350 50  0000 L CNN
F 2 "Capacitor_SMD:C_1206_3216Metric_Pad1.42x1.75mm_HandSolder" H 6025 3450 60  0001 C CNN
F 3 "" H 6025 3450 60  0000 C CNN
	1    6025 3450
	1    0    0    -1  
$EndComp
$Comp
L KomaFieldKit-PR3-rescue:C C7
U 1 1 56D97771
P 2950 4775
F 0 "C7" H 3000 4875 50  0000 L CNN
F 1 "100nF" H 3000 4675 50  0000 L CNN
F 2 "Capacitor_SMD:C_1206_3216Metric_Pad1.42x1.75mm_HandSolder" H 2950 4775 60  0001 C CNN
F 3 "" H 2950 4775 60  0000 C CNN
	1    2950 4775
	1    0    0    -1  
$EndComp
$Comp
L KomaFieldKit-PR3-rescue:VV #PWR02
U 1 1 56D9CCD0
P 7875 2700
F 0 "#PWR02" H 7875 2800 30  0001 C CNN
F 1 "VV" H 7875 2800 30  0000 C CNN
F 2 "" H 7875 2700 60  0000 C CNN
F 3 "" H 7875 2700 60  0000 C CNN
	1    7875 2700
	1    0    0    -1  
$EndComp
$Comp
L KomaFieldKit-PR3-rescue:CONN_1 P1
U 1 1 56F13B52
P 8425 5025
F 0 "P1" H 8375 5125 40  0000 L CNN
F 1 "Mount1" H 8425 5080 30  0000 C CNN
F 2 "otto:MountingHole_M3-3.5mm" H 8425 5025 60  0001 C CNN
F 3 "" H 8425 5025 60  0000 C CNN
	1    8425 5025
	1    0    0    -1  
$EndComp
$Comp
L KomaFieldKit-PR3-rescue:CONN_1 P2
U 1 1 56F13C58
P 8575 5025
F 0 "P2" H 8525 4925 40  0000 L CNN
F 1 "Mount2" H 8575 4975 30  0000 C CNN
F 2 "otto:MountingHole_M3-3.5mm" H 8575 5025 60  0001 C CNN
F 3 "" H 8575 5025 60  0000 C CNN
	1    8575 5025
	-1   0    0    1   
$EndComp
$Comp
L KomaFieldKit-PR3-rescue:CONN_1 P3
U 1 1 56F13D06
P 8425 5225
F 0 "P3" H 8375 5325 40  0000 L CNN
F 1 "Mount3" H 8425 5280 30  0000 C CNN
F 2 "otto:MountingHole_M3-3.5mm" H 8425 5225 60  0001 C CNN
F 3 "" H 8425 5225 60  0000 C CNN
	1    8425 5225
	1    0    0    -1  
$EndComp
$Comp
L KomaFieldKit-PR3-rescue:CONN_1 P4
U 1 1 56F13DC4
P 8575 5225
F 0 "P4" H 8525 5125 40  0000 L CNN
F 1 "Mount4" H 8575 5175 30  0000 C CNN
F 2 "otto:MountingHole_M3-3.5mm" H 8575 5225 60  0001 C CNN
F 3 "" H 8575 5225 60  0000 C CNN
	1    8575 5225
	-1   0    0    1   
$EndComp
NoConn ~ 8275 5025
NoConn ~ 8725 5025
NoConn ~ 8725 5225
NoConn ~ 8275 5225
Text Notes 6300 2425 0    79   ~ 16
Virtual Ground
Text Notes 3075 2475 0    79   ~ 16
Input from Limb
Text Notes 8850 4650 0    79   ~ 16
Mounting
$Comp
L KomaFieldKit-PR3-rescue:AGND #PWR04
U 1 1 57F67045
P 4700 3400
F 0 "#PWR04" H 4700 3400 40  0001 C CNN
F 1 "AGND" H 4700 3330 50  0000 C CNN
F 2 "" H 4700 3400 60  0000 C CNN
F 3 "" H 4700 3400 60  0000 C CNN
	1    4700 3400
	1    0    0    -1  
$EndComp
Connection ~ 3800 3000
Wire Wire Line
	3800 3000 3800 3050
Wire Wire Line
	7075 3100 7125 3100
Connection ~ 7125 2750
Wire Wire Line
	6025 2750 7125 2750
Connection ~ 6025 3200
Wire Wire Line
	6025 3200 6025 3300
Connection ~ 5575 3200
Wire Wire Line
	5275 3200 5575 3200
Wire Wire Line
	6075 3000 6025 3000
Wire Wire Line
	6025 3000 6025 2750
Connection ~ 7425 2750
Wire Wire Line
	7875 2700 7875 2750
Connection ~ 7875 2750
Wire Wire Line
	2450 5175 2450 5225
Wire Wire Line
	2450 4275 2450 4325
Wire Wire Line
	7125 3100 7125 2750
Wire Wire Line
	5275 2600 5275 2750
Wire Wire Line
	5275 3050 5275 3200
Wire Wire Line
	7425 3250 7425 3200
Wire Wire Line
	2450 4325 2950 4325
Wire Wire Line
	2950 4325 2950 4625
Connection ~ 2450 4325
Wire Wire Line
	2950 5225 2450 5225
Wire Wire Line
	2950 4925 2950 5225
Connection ~ 2450 5225
Wire Notes Line
	10200 4700 10200 5300
Wire Notes Line
	8075 5300 8075 4700
Wire Wire Line
	7125 2750 7425 2750
Wire Wire Line
	6025 3200 6075 3200
Wire Wire Line
	5575 3200 6025 3200
Wire Wire Line
	7425 2750 7875 2750
Wire Wire Line
	7875 2750 7875 2900
Wire Wire Line
	2450 4325 2450 4375
Wire Wire Line
	2450 5225 2450 5275
$Comp
L Connector_Generic:Conn_01x07 J1
U 1 1 5DC02DAD
P 2400 3300
F 0 "J1" H 2400 3750 50  0000 C CNN
F 1 "Limb Input" H 2400 2850 50  0000 C CNN
F 2 "koma:SynLimb-Connector" H 2400 3300 50  0001 C CNN
F 3 "~" H 2400 3300 50  0001 C CNN
	1    2400 3300
	-1   0    0    -1  
$EndComp
$Comp
L KomaFieldKit-PR3-rescue:VCC #PWR03
U 1 1 5DC04545
P 4700 3000
F 0 "#PWR03" H 4700 3100 30  0001 C CNN
F 1 "VCC" H 4700 3125 30  0000 C CNN
F 2 "" H 4700 3000 60  0000 C CNN
F 3 "" H 4700 3000 60  0000 C CNN
	1    4700 3000
	1    0    0    -1  
$EndComp
$Comp
L Device:D_ALT D1
U 1 1 5DC2E7B3
P 3800 3200
F 0 "D1" V 3754 3279 50  0000 L CNN
F 1 "1N4007" V 3845 3279 50  0000 L CNN
F 2 "Diode_SMD:D_SMA_Handsoldering" H 3800 3200 50  0001 C CNN
F 3 "~" H 3800 3200 50  0001 C CNN
	1    3800 3200
	0    -1   1    0   
$EndComp
$Comp
L Device:CP1 C5
U 1 1 5DC3F9D4
P 5575 3450
F 0 "C5" H 5690 3496 50  0000 L CNN
F 1 "10uF" H 5690 3405 50  0000 L CNN
F 2 "Capacitor_THT:CP_Radial_D6.3mm_P2.50mm" H 5575 3450 50  0001 C CNN
F 3 "~" H 5575 3450 50  0001 C CNN
	1    5575 3450
	1    0    0    -1  
$EndComp
Wire Wire Line
	5275 3300 5275 3200
Connection ~ 5275 3200
Wire Wire Line
	5575 3200 5575 3300
$Comp
L Device:CP1 C3
U 1 1 5DC43C87
P 7425 3050
F 0 "C3" H 7540 3096 50  0000 L CNN
F 1 "10uF" H 7540 3005 50  0000 L CNN
F 2 "Capacitor_THT:CP_Radial_D6.3mm_P2.50mm" H 7425 3050 50  0001 C CNN
F 3 "~" H 7425 3050 50  0001 C CNN
	1    7425 3050
	1    0    0    -1  
$EndComp
Wire Wire Line
	5275 3650 5275 3600
$Comp
L KomaFieldKit-PR3-rescue:AGND #PWR?
U 1 1 5DC45B69
P 7875 3250
AR Path="/5DC45B69" Ref="#PWR?"  Part="1" 
AR Path="/56CC38FC/5DC45B69" Ref="#PWR?"  Part="1" 
AR Path="/5DAA151B/5DC45B69" Ref="#PWR0101"  Part="1" 
F 0 "#PWR0101" H 7875 3250 40  0001 C CNN
F 1 "AGND" H 7875 3180 50  0000 C CNN
F 2 "" H 7875 3250 60  0000 C CNN
F 3 "" H 7875 3250 60  0000 C CNN
	1    7875 3250
	1    0    0    -1  
$EndComp
Wire Wire Line
	7875 3250 7875 3200
Wire Wire Line
	5575 3650 5575 3600
Wire Wire Line
	6025 3650 6025 3600
$Comp
L KomaFieldKit-PR3-rescue:AGND #PWR?
U 1 1 5DC468A3
P 5575 3650
AR Path="/5DC468A3" Ref="#PWR?"  Part="1" 
AR Path="/56CC38FC/5DC468A3" Ref="#PWR?"  Part="1" 
AR Path="/5DAA151B/5DC468A3" Ref="#PWR0102"  Part="1" 
F 0 "#PWR0102" H 5575 3650 40  0001 C CNN
F 1 "AGND" H 5575 3580 50  0000 C CNN
F 2 "" H 5575 3650 60  0000 C CNN
F 3 "" H 5575 3650 60  0000 C CNN
	1    5575 3650
	1    0    0    -1  
$EndComp
$Comp
L KomaFieldKit-PR3-rescue:AGND #PWR?
U 1 1 5DC48E04
P 6025 3650
AR Path="/5DC48E04" Ref="#PWR?"  Part="1" 
AR Path="/56CC38FC/5DC48E04" Ref="#PWR?"  Part="1" 
AR Path="/5DAA151B/5DC48E04" Ref="#PWR0103"  Part="1" 
F 0 "#PWR0103" H 6025 3650 40  0001 C CNN
F 1 "AGND" H 6025 3580 50  0000 C CNN
F 2 "" H 6025 3650 60  0000 C CNN
F 3 "" H 6025 3650 60  0000 C CNN
	1    6025 3650
	1    0    0    -1  
$EndComp
$Comp
L KomaFieldKit-PR3-rescue:AGND #PWR?
U 1 1 5DC44432
P 5275 3650
AR Path="/5DC44432" Ref="#PWR?"  Part="1" 
AR Path="/56CC38FC/5DC44432" Ref="#PWR?"  Part="1" 
AR Path="/5DAA151B/5DC44432" Ref="#PWR0104"  Part="1" 
F 0 "#PWR0104" H 5275 3650 40  0001 C CNN
F 1 "AGND" H 5275 3580 50  0000 C CNN
F 2 "" H 5275 3650 60  0000 C CNN
F 3 "" H 5275 3650 60  0000 C CNN
	1    5275 3650
	1    0    0    -1  
$EndComp
$Comp
L KomaFieldKit-PR3-rescue:TL072 U1
U 3 1 5DC9A2F6
P 2550 4775
F 0 "U1" H 2500 4975 60  0000 L CNN
F 1 "TL072" H 2500 4525 60  0000 L CNN
F 2 "Package_SO:SOIC-8_3.9x4.9mm_P1.27mm" H 2550 4775 60  0001 C CNN
F 3 "" H 2550 4775 60  0000 C CNN
	3    2550 4775
	1    0    0    -1  
$EndComp
$Comp
L KomaFieldKit-PR3-rescue:C C8
U 1 1 5DCE4379
P 3950 4775
F 0 "C8" H 4000 4875 50  0000 L CNN
F 1 "100nF" H 4000 4675 50  0000 L CNN
F 2 "Capacitor_SMD:C_1206_3216Metric_Pad1.42x1.75mm_HandSolder" H 3950 4775 60  0001 C CNN
F 3 "" H 3950 4775 60  0000 C CNN
	1    3950 4775
	1    0    0    -1  
$EndComp
Wire Wire Line
	3950 4325 3950 4625
Wire Wire Line
	3950 4925 3950 5225
$Comp
L chrisi:TL074 U2
U 5 1 5DCE4385
P 3550 4775
AR Path="/5DCE4385" Ref="U2"  Part="5" 
AR Path="/5DAA151B/5DCE4385" Ref="U2"  Part="5" 
F 0 "U2" H 3500 4975 60  0000 L CNN
F 1 "TL074" H 3500 4525 60  0000 L CNN
F 2 "Package_SO:SOIC-14_3.9x8.7mm_P1.27mm" H 3550 4775 60  0001 C CNN
F 3 "" H 3550 4775 60  0000 C CNN
	5    3550 4775
	1    0    0    -1  
$EndComp
$Comp
L KomaFieldKit-PR3-rescue:C C9
U 1 1 5DCE7E29
P 4950 4775
F 0 "C9" H 5000 4875 50  0000 L CNN
F 1 "100nF" H 5000 4675 50  0000 L CNN
F 2 "Capacitor_SMD:C_1206_3216Metric_Pad1.42x1.75mm_HandSolder" H 4950 4775 60  0001 C CNN
F 3 "" H 4950 4775 60  0000 C CNN
	1    4950 4775
	1    0    0    -1  
$EndComp
Wire Wire Line
	4950 4325 4950 4625
Wire Wire Line
	4950 4925 4950 5225
Wire Wire Line
	2950 5225 3450 5225
Connection ~ 2950 5225
Connection ~ 3950 5225
Wire Wire Line
	3950 5225 4450 5225
Wire Wire Line
	4950 4325 4450 4325
Connection ~ 2950 4325
Connection ~ 3950 4325
Wire Wire Line
	3950 4325 3450 4325
Wire Wire Line
	3450 5175 3450 5225
Connection ~ 3450 5225
Wire Wire Line
	3450 5225 3950 5225
Wire Wire Line
	4450 5175 4450 5225
Connection ~ 4450 5225
Wire Wire Line
	4450 5225 4950 5225
Wire Wire Line
	3450 4375 3450 4325
Connection ~ 3450 4325
Wire Wire Line
	3450 4325 2950 4325
Wire Wire Line
	4450 4375 4450 4325
Connection ~ 4450 4325
Wire Wire Line
	4450 4325 3950 4325
$Comp
L KomaFieldKit-PR3-rescue:VCC #PWR0114
U 1 1 5DCF01C2
P 6925 4425
F 0 "#PWR0114" H 6925 4525 30  0001 C CNN
F 1 "VCC" H 6925 4550 30  0000 C CNN
F 2 "" H 6925 4425 60  0000 C CNN
F 3 "" H 6925 4425 60  0000 C CNN
	1    6925 4425
	1    0    0    -1  
$EndComp
$Comp
L KomaFieldKit-PR3-rescue:R R17
U 1 1 5DCF0686
P 6925 4575
F 0 "R17" V 7005 4575 50  0000 C CNN
F 1 "1k" V 6925 4575 50  0000 C CNN
F 2 "Resistor_SMD:R_1206_3216Metric_Pad1.42x1.75mm_HandSolder" H 6925 4575 60  0001 C CNN
F 3 "" H 6925 4575 60  0000 C CNN
	1    6925 4575
	1    0    0    -1  
$EndComp
$Comp
L Device:LED_ALT D2
U 1 1 5DCF0F20
P 6925 4875
F 0 "D2" V 6964 4757 50  0000 R CNN
F 1 "ON LED" V 6873 4757 50  0000 R CNN
F 2 "LED_THT:LED_D3.0mm" H 6925 4875 50  0001 C CNN
F 3 "~" H 6925 4875 50  0001 C CNN
	1    6925 4875
	0    -1   -1   0   
$EndComp
$Comp
L KomaFieldKit-PR3-rescue:AGND #PWR?
U 1 1 5DCF1297
P 6925 5075
AR Path="/5DCF1297" Ref="#PWR?"  Part="1" 
AR Path="/56CC38FC/5DCF1297" Ref="#PWR?"  Part="1" 
AR Path="/5DAA151B/5DCF1297" Ref="#PWR0115"  Part="1" 
F 0 "#PWR0115" H 6925 5075 40  0001 C CNN
F 1 "AGND" H 6925 5005 50  0000 C CNN
F 2 "" H 6925 5075 60  0000 C CNN
F 3 "" H 6925 5075 60  0000 C CNN
	1    6925 5075
	1    0    0    -1  
$EndComp
Wire Wire Line
	6925 5075 6925 5025
Text Notes 6700 4175 0    79   ~ 16
ON LED
Wire Wire Line
	7425 2750 7425 2900
$Comp
L chrisi:TL074 U3
U 5 1 5DD69335
P 4550 4775
AR Path="/5DD69335" Ref="U3"  Part="5" 
AR Path="/5DAA151B/5DD69335" Ref="U3"  Part="5" 
F 0 "U3" H 4500 4975 60  0000 L CNN
F 1 "TL074" H 4500 4525 60  0000 L CNN
F 2 "Package_SO:SOIC-14_3.9x8.7mm_P1.27mm" H 4550 4775 60  0001 C CNN
F 3 "" H 4550 4775 60  0000 C CNN
	5    4550 4775
	1    0    0    -1  
$EndComp
Text Notes 1700 7150 0    138  ~ 28
Techflex Verbindungen\nnicht pin-geprüft
$Comp
L Connector:Conn_01x04_Male J10
U 1 1 607182A2
P 2550 6150
F 0 "J10" H 2658 6431 50  0000 C CNN
F 1 "Conn_01x04_Male" H 2658 6340 50  0000 C CNN
F 2 "koma:PowerLink_4Pin_4.2mm_NoPeg" H 2550 6150 50  0001 C CNN
F 3 "~" H 2550 6150 50  0001 C CNN
	1    2550 6150
	1    0    0    -1  
$EndComp
Text GLabel 2900 6050 2    39   Input ~ 0
+12V
Text GLabel 2900 6150 2    39   Input ~ 0
-12V
$Comp
L power:GNDPWR #PWR0152
U 1 1 6071F47A
P 2900 6350
F 0 "#PWR0152" H 2900 6150 50  0001 C CNN
F 1 "GNDPWR" H 2904 6196 50  0000 C CNN
F 2 "" H 2900 6300 50  0001 C CNN
F 3 "" H 2900 6300 50  0001 C CNN
	1    2900 6350
	1    0    0    -1  
$EndComp
Wire Wire Line
	2750 6150 2900 6150
Wire Wire Line
	2750 6050 2900 6050
Wire Wire Line
	2750 6350 2900 6350
NoConn ~ 2750 6250
Text Notes 2450 5800 0    79   ~ 16
From Modular
Wire Wire Line
	2600 3000 3800 3000
NoConn ~ 2600 3400
NoConn ~ 2600 3500
NoConn ~ 2600 3600
Text GLabel 2850 3200 2    39   Output ~ 8
Electrode-B
Text GLabel 2850 3100 2    39   Output ~ 8
Electrode-A
Wire Wire Line
	2600 3100 2850 3100
Wire Wire Line
	2600 3200 2850 3200
Wire Wire Line
	2600 3300 2850 3300
Wire Wire Line
	2850 3300 2850 3350
Wire Wire Line
	2850 3350 3800 3350
$Comp
L Device:CP1 C1
U 1 1 5DC30790
P 4400 3200
F 0 "C1" H 4515 3246 50  0000 L CNN
F 1 "10uF" H 4515 3155 50  0000 L CNN
F 2 "Capacitor_THT:CP_Radial_D6.3mm_P2.50mm" H 4400 3200 50  0001 C CNN
F 3 "~" H 4400 3200 50  0001 C CNN
	1    4400 3200
	-1   0    0    -1  
$EndComp
Wire Wire Line
	3800 3000 4400 3000
Wire Wire Line
	3800 3350 4400 3350
Connection ~ 3800 3350
Connection ~ 4400 3350
Wire Wire Line
	4400 3350 4700 3350
Wire Wire Line
	4400 3050 4400 3000
Connection ~ 4400 3000
Wire Wire Line
	4400 3000 4700 3000
Wire Wire Line
	4700 3050 4700 3000
Connection ~ 4700 3000
Wire Wire Line
	4700 3400 4700 3350
Connection ~ 4700 3350
$Comp
L KomaFieldKit-PR3-rescue:CONN_1 P5
U 1 1 60AC097F
P 9050 5025
F 0 "P5" H 9000 5125 40  0000 L CNN
F 1 "Mount1" H 9050 5080 30  0000 C CNN
F 2 "otto:MountingHole_M3-3.5mm" H 9050 5025 60  0001 C CNN
F 3 "" H 9050 5025 60  0000 C CNN
	1    9050 5025
	1    0    0    -1  
$EndComp
$Comp
L KomaFieldKit-PR3-rescue:CONN_1 P7
U 1 1 60AC0989
P 9200 5025
F 0 "P7" H 9150 4925 40  0000 L CNN
F 1 "Mount2" H 9200 4975 30  0000 C CNN
F 2 "otto:MountingHole_M3-3.5mm" H 9200 5025 60  0001 C CNN
F 3 "" H 9200 5025 60  0000 C CNN
	1    9200 5025
	-1   0    0    1   
$EndComp
$Comp
L KomaFieldKit-PR3-rescue:CONN_1 P6
U 1 1 60AC0993
P 9050 5225
F 0 "P6" H 9000 5325 40  0000 L CNN
F 1 "Mount3" H 9050 5280 30  0000 C CNN
F 2 "otto:MountingHole_M3-3.5mm" H 9050 5225 60  0001 C CNN
F 3 "" H 9050 5225 60  0000 C CNN
	1    9050 5225
	1    0    0    -1  
$EndComp
$Comp
L KomaFieldKit-PR3-rescue:CONN_1 P8
U 1 1 60AC099D
P 9200 5225
F 0 "P8" H 9150 5125 40  0000 L CNN
F 1 "Mount4" H 9200 5175 30  0000 C CNN
F 2 "otto:MountingHole_M3-3.5mm" H 9200 5225 60  0001 C CNN
F 3 "" H 9200 5225 60  0000 C CNN
	1    9200 5225
	-1   0    0    1   
$EndComp
NoConn ~ 8900 5025
NoConn ~ 9350 5025
NoConn ~ 9350 5225
NoConn ~ 8900 5225
$Comp
L KomaFieldKit-PR3-rescue:CONN_1 P9
U 1 1 60AC6AE8
P 9675 5025
F 0 "P9" H 9625 5125 40  0000 L CNN
F 1 "Mount1" H 9675 5080 30  0000 C CNN
F 2 "otto:MountingHole_M3-3.5mm" H 9675 5025 60  0001 C CNN
F 3 "" H 9675 5025 60  0000 C CNN
	1    9675 5025
	1    0    0    -1  
$EndComp
$Comp
L KomaFieldKit-PR3-rescue:CONN_1 P11
U 1 1 60AC6AF2
P 9825 5025
F 0 "P11" H 9775 4925 40  0000 L CNN
F 1 "Mount2" H 9825 4975 30  0000 C CNN
F 2 "otto:MountingHole_M3-3.5mm" H 9825 5025 60  0001 C CNN
F 3 "" H 9825 5025 60  0000 C CNN
	1    9825 5025
	-1   0    0    1   
$EndComp
$Comp
L KomaFieldKit-PR3-rescue:CONN_1 P10
U 1 1 60AC6AFC
P 9675 5225
F 0 "P10" H 9625 5325 40  0000 L CNN
F 1 "Mount3" H 9675 5280 30  0000 C CNN
F 2 "otto:MountingHole_M3-3.5mm" H 9675 5225 60  0001 C CNN
F 3 "" H 9675 5225 60  0000 C CNN
	1    9675 5225
	1    0    0    -1  
$EndComp
$Comp
L KomaFieldKit-PR3-rescue:CONN_1 P12
U 1 1 60AC6B06
P 9825 5225
F 0 "P12" H 9775 5125 40  0000 L CNN
F 1 "Mount4" H 9825 5175 30  0000 C CNN
F 2 "otto:MountingHole_M3-3.5mm" H 9825 5225 60  0001 C CNN
F 3 "" H 9825 5225 60  0000 C CNN
	1    9825 5225
	-1   0    0    1   
$EndComp
NoConn ~ 9525 5025
NoConn ~ 9975 5025
NoConn ~ 9975 5225
NoConn ~ 9525 5225
Wire Notes Line
	8075 4700 10200 4700
Wire Notes Line
	8075 5300 10200 5300
Text Notes 8350 4825 0    39   ~ 0
Mainboard
Text Notes 8975 4825 0    39   ~ 0
LED - A
Text Notes 9600 4825 0    39   ~ 0
LED - B
$EndSCHEMATC
